! COMDECK COM_RPS
! %Z%GTOSS %M% H.12 code v02.00
!              H.12 code v02.00 Increased number of Att Pts to 16
!----------------------------------------------------------------
!              H.10 code v01.04 Added RP planet fixed flag LRPFIX.
!                               Assigned APS elements to mass-flow-force.
!                               Upgraded comments to reflect Host vs Ref Pt.
!                               Increased no. of TOSS Objecst to 15.
!--------------------------------------------------------------------------
!              H.7 code v01.03 Added plasma flags LPLSOP, LEVPLS
!--------------------------------------------------------------------
!              H.5 code v01.02 Added constant spherical planet radius
!--------------------------------------------------------------------
!              H.1 code v01.01 (baseline for vG.1 delivery)
!********************************************************
!********************************************************
!
!      COMMON FOR TOSS INTERFACE TO HOST SIMULATION
!
!********************************************************
!********************************************************

! DECLARE COMMON FOR RPS AND APS ARRAYS
!--------------------------------------
! STATE NUMBER OF ITEMS IN RPS ARRAY
      PARAMETER ( NRPS = 84 )

! STATE NUMBER OF ITEMS IN APS ARRAY (FOR A GIVEN ATTACH PT AND OBJECT)
      PARAMETER ( NAPS = 42 )

! STATE MAX NUMBER OF ATTACH POINTS ON AN OBJECT
      PARAMETER ( NATT = 16 )

! STATE MAX NUMBER OF TOSS OBJECTS (REF PT OBJECT IS =1)
      PARAMETER ( NOBJ = 15  )

! STATE SIZE OF LTOSS ARRAY
      PARAMETER ( NLTOSS = 25 )

! STATE SIZE OF REF POINT STATE ARRAY
      COMMON /TOSSR/  RPS(NRPS),  APS(NAPS, NATT, NOBJ)
      COMMON /TOSSI/  LTOSS(NLTOSS)



! HOST-SPECIFIED ENVIRONMENT MODEL FIDELITY LEVEL      (HOST -> TOSS)
!--------------------------------------------------------------------
! PLANET GRAVITY MODEL FIDELITY LEVEL
      EQUIVALENCE (LTOSS(1),  LGRVOP )

! PLANET ATMOSPHERIC DENSITY MODEL FIDELITY LEVEL
      EQUIVALENCE (LTOSS(2),  LATMOP )

! PLANET MAGNETIC FIELD MODEL FIDELITY LEVEL
      EQUIVALENCE (LTOSS(3),  LMAGOP )

! PLANET GLOBE GEOMETRY MODEL FIDELITY LEVEL
      EQUIVALENCE (LTOSS(4),  LGLBOP )

! PLANET WINDS PERTURBATION MODEL FIDELITY LEVEL
      EQUIVALENCE (LTOSS(5),  LWNDOP )

! ASTRONOMICAL COORDINATES MODEL FIDELITY LEVEL
      EQUIVALENCE (LTOSS(6),  LJULOP )

! ATMOSPHERIC PLASMA MODEL FIDELITY LEVEL
      EQUIVALENCE (LTOSS(7),  LPLSOP )

!     EQUIVALENCE (LTOSS(8),            RESERVED FOR NEW ENVIROMENTS)
!     EQUIVALENCE (LTOSS(9),            RESERVED FOR NEW ENVIROMENTS)


! ENVIRONMENT EVALUATION (FREQ) COMMAND FLAGS
! (=1 MEANS VISIT ENVIRONMENT MODEL DURING TOSS PASS)  (HOST -> TOSS)
!--------------------------------------------------------------------
! GRAVITY MODEL EVALUATION VISIT FLAG
      EQUIVALENCE (LTOSS(10),  LEVGRV )

! ATMOSPHERIC DENSITY MODEL EVALUATION VISIT FLAG
      EQUIVALENCE (LTOSS(11),  LEVATM )

! MAGNETIC FIELD MODEL EVALUATION VISIT FLAG
      EQUIVALENCE (LTOSS(12),  LEVMAG )

! EARTH WINDS PERTURBATION MODEL EVALUATION VISIT FLAG
      EQUIVALENCE (LTOSS(13),  LEVWND )

! PLASMA ENVIRONMENT MODEL EVALUATION VISIT FLAG
      EQUIVALENCE (LTOSS(14),  LEVPLS )


! FLAG TO INDICATE THAT REF PT IS FIXED TO PLANET
! (=1 MEANS REF PT IS FIXED TO PLANET, ELSE =0)        (HOST -> TOSS)
!--------------------------------------------------------------------
      EQUIVALENCE (LTOSS(15),  LRPFIX )


!     EQUIVALENCE (LTOSS(16),            RESERVED FOR NEW ENVIROMENTS)
!     ......................
!     EQUIVALENCE (LTOSS(18),            RESERVED FOR NEW ENVIROMENTS)


! NUMBER OF ACTIVE REF PT OBJECT ATTACH PTS            (HOST -> TOSS)
!--------------------------------------------------------------------
      EQUIVALENCE (LTOSS(19),  NAPRFP )

! NUMBER OF ACTIVE TOSS OBJECTS                        (HOST -> TOSS)
!--------------------------------------------------------------------
      EQUIVALENCE (LTOSS(20),  LASOBJ )

! EULER ANGLE DISPLAY MODEL OPTION                     (HOST -> TOSS)
!--------------------------------------------------------------------
      EQUIVALENCE (LTOSS(21),  LEULOP )


!     EQUIVALENCE (LTOSS(22),            UNASSIGNED )
!          ......
!     EQUIVALENCE (LTOSS(25),            UNASSIGNED )


!<><><><><><><><><><><><><><><><><><><><><><><><><><>
!
!    NOTE: TO ADD ANOTHER TOSS OBJECT, INCREASE
!    THE DIMENSION "NOBJ" IN THE APS ARRAY.
!
!    NOTE: TO ADD ANOTHER ATTACH POINT, INCREASE
!    THE DIMENSION "NATT" IN THE APS ARRAY.
!
!
!    !!!!!!!!!!!!!!!! WARNING !!!!!!!!!!!!!!!!!!!!
!
!    ADDING "ATTACH POINTS" BEYOND "8", REQUIRES
!    CHANGES TO THE DETAILED EQUIVALENCE STATEMENTS
!    FOR THE "TYPICAL OBJECT" (THE WORKING TEMPLATE).
!
!
!<><><><><><><><><><><><><><><><><><><><><><><><><><>

! DIMENSION THE REFERENCE POINT VARIABLES
      DIMENSION RPI(3),      RPID(3),     RPIDD(3),   &
     &          RPGOI(3,3),  RPGRI(3,3),  RPGIL(3,3),   &
     &          RPACGI(3),   RPIP(3),     RPGAU(3),   &
     &          RPDOFI(3),   &
     &          POSCGI(3),   VELCGI(3),   &
     &          PLMOMI(3),   PAMOMI(3),   &
     &          SYSMOG(3),   SYSFOG(3)


! REFERENCE POINT POSITION STATE                         (HOST -> TOSS)
      EQUIVALENCE ( RPS( 1), RPI(1)     )
      EQUIVALENCE ( RPS( 4), RPID(1)    )
      EQUIVALENCE ( RPS( 7), RPIDD(1)   )

! REFERENCE POINT ORTHOGONAL FRAMES OF INTEREST          (HOST -> TOSS)
      EQUIVALENCE ( RPS(10), RPGOI(1,1) )
      EQUIVALENCE ( RPS(19), RPGRI(1,1) )
      EQUIVALENCE ( RPS(28), RPGIL(1,1) )

! HOST TIME AND INTEGRATION INTERVAL                     (HOST -> TOSS)
      EQUIVALENCE ( RPS(37), RPTIME     )
      EQUIVALENCE ( RPS(38), RPDELT     )

! REFERENCE POINT CURRENT TOTAL MASS                     (HOST -> TOSS)
      EQUIVALENCE ( RPS(39), RPMAST     )

! REFERENCE POINT ALTITUDE ABOVE PLANET GLOBE            (HOST -> TOSS)
      EQUIVALENCE ( RPS(40), RPALT      )

! REFERENCE POINT ACCELERATION OF GRAVITY                (HOST -> TOSS)
      EQUIVALENCE ( RPS(41), RPACGI(1)  )

! REFERENCE POINT POSITION IN PLANET FRAME               (HOST -> TOSS)
      EQUIVALENCE ( RPS(44), RPIP(1)    )

! REFERENCE POINT MAGNETIC FIELD IN PLANET FRAME     (HOST -> GEN INFO)
      EQUIVALENCE ( RPS(47), RPGAU(1)  )


! THE FOLLOWING ARE SYSTEM DYNAMICS VERIFICATION PARAMETERS
! (TOSS RELATED CALCS MUST BE ACTIVATED BY TOSS USER INPUT REQUEST)

! SYS TOTAL MASS (ALL OBJECTS, AND ALL TETHERS)        (TOSS->GEN INFO)
      EQUIVALENCE  (RPS(50), TOTMAS )

! SYS CENTER OF MASS WR/T REF PT IN INER FRAME         (TOSS->GEN INFO)
      EQUIVALENCE  (RPS(51), POSCGI(1) )
      EQUIVALENCE  (RPS(54), VELCGI(1) )

! SYS PARTICLE MOMENTUM (WR/T SYS CG) IN INER FRAME    (TOSS->GEN INFO)
      EQUIVALENCE  (RPS(57), PLMOMI(1) )
      EQUIVALENCE  (RPS(60), PAMOMI(1) )

! SYS GRAV FORCE/TORQUE (WR/T SYS CG) IN INER FRAME    (TOSS->GEN INFO)
      EQUIVALENCE  (RPS(63), SYSMOG(1) )
      EQUIVALENCE  (RPS(66), SYSFOG(1) )


! REF PT 6 DOF ANGULAR MOMENTUM IN INER FRAME        (HOST -> GEN INFO)
      EQUIVALENCE  (RPS(69), RPDOFI(1) )


! REF PT PLANET CONSTANT RADIUS (OBLATE RAD AT T=0)  (HOST -> GEN INFO)
      EQUIVALENCE  (RPS(72), RPRCON    )

!     EQUIVALENCE  (RPS(73), NEXT AVAILABLE   )
!     EQUIVALENCE  (RPS(84), LAST ELEMENT     )
!
! NOTE ARRAY SIZE OF 84 FOR RPS EXCEEDS REQUIREMENTS, NEVERTHLESS IT
!      IS USED TO INDICATE THAT THE RDB CURRENTLY STORES A NUMBER OF
!      RPS RECORDS EQUIVALENT TO THIS SIZE OF AN ARRAY (IE. TWICE THE
!      APS RECORD SIZE). THUS UNTIL THIS SIZE IS EXCEEDED, NO RDB CODE
!      MAINTENANCE IS REQUIRED.
!
! NOTE ALSO, THE APS ARRAY SIZE IS TOTALLY SELF MAINTAINING WR/T THE
!      RDB SUB-SYSTEM IN RTOSS


!****************************************************
!****************************************************
! THE FOLLOWING DEFINES THE CONTENTS OF THE APS ARRAY
!****************************************************
!****************************************************
! NOTE THAT THESE ITEMS ARE NOT USUALLY REFERRED TO BY
! AN EQUIVALENCED NAME, BUT RATHER BY INDEXES INTO THE
! APS ARRAY. WHILE THIS SEEMS TO BE A GTOSS CONVENTION,
! THERE IS NO HARD AND FAST RULE AGAINST DOING SO.
!
!   APS( 1, NAP, NOBJ)      FXAPI NET FORCE ON AP (INER FRAME)
!   APS( 2, NAP, NOBJ)      FYAPI
!   APS( 3, NAP, NOBJ)      FZAPI
!
!   APS( 4, NAP, NOBJ)      CXAPI NET COUPLE ON AP (INER FRAME)
!   APS( 5, NAP, NOBJ)      CYAPI
!   APS( 6, NAP, NOBJ)      CZAPI
!
!   APS( 7, NAP, NOBJ)      XAPI  AP POS WR/T TOSS REP PT (INER FRAME)
!   APS( 8, NAP, NOBJ)      YAPI
!   APS( 9, NAP, NOBJ)      ZAPI
!
!   APS(10, NAP, NOBJ)      XAPID (DERIV OF XAPI)
!   APS(11, NAP, NOBJ)      YAPID
!   APS(12, NAP, NOBJ)      ZAPID
!
!   APS(13, NAP, NOBJ)      XAIDD (DERIV OF XAPID)
!   APS(14, NAP, NOBJ)      YAIDD
!   APS(15, NAP, NOBJ)      ZAIDD
!
!   APS(16, NAP, NOBJ)      GAI(1)   GAII(1,1) OF AP FRM WR/T INER FRM
!   APS(17, NAP, NOBJ)      GAI(2)
!   APS(18, NAP, NOBJ)      GAI(3)          {XA} = [GAI]{XI}
!   APS(19, NAP, NOBJ)      GAI(4)
!   APS(20, NAP, NOBJ)      GAI(5)
!   APS(21, NAP, NOBJ)      GAI(6)
!   APS(22, NAP, NOBJ)      GAI(7)
!   APS(23, NAP, NOBJ)      GAI(8)
!   APS(24, NAP, NOBJ)      GAI(9)
!
!   APS(25, NAP, NOBJ)      OXAFA  ANG VEL OF AP FRAME (AP FRAME)
!   APS(26, NAP, NOBJ)      OYAFA
!   APS(27, NAP, NOBJ)      OYAFA
!
!   APS(28, NAP, NOBJ)      OXAFAD (DERIV OF OXAFA)
!   APS(29, NAP, NOBJ)      OYAFAD
!   APS(30, NAP, NOBJ)      OZAFAD
!
!   APS(31, NAP, NOBJ)      AP TIME STATE
!
!   APS(32, NAP, NOBJ)      TOTAL MASS DEPLOYED IN/OUT FROM THIS AP
!                           (SINCE RPTIME = 0)
!
!   APS(33, NAP, NOBJ)      FXMFTI DEPLOY MASS-FLOW FORCE ON AP (INER FRM)
!   APS(34, NAP, NOBJ)      FYMFTI
!   APS(35, NAP, NOBJ)      FZMFTI

!   APS(36, NAP, NOBJ)      AVAILABLE FOR EXPANSION


! NOTE: THE ITEMS BELOW ARE OF NO CONCERN TO THE HOST-TOSS INTERFACE.
!       THEY ARE REPOSITORIES FOR CONTRIBUTIONS TO ATTACH POINT LOADS
!       WHICH ARE NOT AN EXPLICITLY DERIVED FROM THE TENSION VECTOR.
!       THEY ARE SUMMED WITH TENSION EFFECTS TO FIND TOTAL AP FORCE.
!-------------------------------------------------------------------
!   APS(37, NAP,NOBJ)  FXSRI NET DAMPER FORCE CONTRIB TO AP (INER FRAME)
!   APS(38, NAP,NOBJ)  FYSRI
!   APS(39, NAP,NOBJ)  FZSRI
!
!   APS(40, NAP,NOBJ)  CXSRI NET DAMPER COUPL CONTRIB TO AP (INER FRAME)
!   APS(41, NAP,NOBJ)  CXSRI
!   APS(42, NAP,NOBJ)  CXSRI
