! COMDECK COM_SOSS
! %Z%GTOSS %M% H.1 code v01.01 (baseline for vG.1 delivery)
!**********************************************
!**********************************************
!
!  GENERAL COMMON FOR STOSS RESULTS DATA BASE
!        POST-PROCESSING DISPLAY SYSTEM
!
!**********************************************
!**********************************************

! THIS IS AN 'INCLUDE' FILE CONTAINING COMMON FOR
! DISPLAY POST-PROCESSING

! THIS COMMON IS BEST DESCRIBED AND UNDERSTOOD IN
! VIEW OF THE FOLLOWING OBSERVATIONS:

!   1. IT BUILDS UPON ALL THE OTHER OFFICIAL GTOSS
!      AND TOSS COMMON INCLUDE FILES AS SUPPLEMENTS

!   2. BY INCORPORATING THESE OTHER INCLUDE FILES,
!      STORAGE ALLOCATION REQUIRED FOR GTOSS/TOSS
!      DATA RECONSTRUCTION, ARE AUTOMATICALLY AND
!      CONSISTENTLY MAINTAINED.

!   3. BY THIS MECHANISM, THE POST PROCESSING
!      DISPLAY ROUTINES CAN INVOKE THE ACTUAL WORKING
!      ARRAY NAME EQUIVALENCE INCLUDE FILES FOR USE
!      IN STORING RESULTS OF THE RDB DATA EXTRACTIONS.

!   4. FUNCTIONING OF THE DISPLAY ROUTINES DRAW
!      HEAVILY UPON VARIOUS INTEGER COMMON ALLOCATIONS
!      EXISTING IN GTOSS FOR SPECIFICATION OF RESULTS
!      DATA BASE FILE MANIPULATION VARIABLES. THIS SHOULD
!      BE SELF MAINTAINING AND CONSISTENT SINCE BOTH
!      PROGRAMS REFER TO THE SAME DATA BASE FILES.


! COMMON FOR GENERAL DATA VARIABLES
!----------------------------------
! STATE SIZE OF THIS COMMON ARRAY
      PARAMETER ( NPR = 800 )
      COMMON /PTOSR/ PR(NPR)

! COMMON FOR INTEGER  VARIABLES
!--------------------------------
! STATE SIZE OF THIS COMMON ARRAY
      PARAMETER ( NING = 100 )
      COMMON /PTOSI/ ING(NING)
      INTEGER ING

! COMMON FOR LOGICAL VARIABLES
!--------------------------------
! STATE SIZE OF THIS COMMON ARRAY
      PARAMETER ( NLOGI = 15 )
      COMMON /PTOSL/ LOGI(NLOGI)
      LOGICAL LOGI



! OBJECT STATE VARIABLE SUMMARY FOR SUPER 3-D SCENE GENERATION
!-------------------------------------------------------------
! MAXIMUM NO OF TOSS OBJECTS THAT CAN BE DRAWN
      PARAMETER ( NOBJMX = 9 )
! NO OF ATTRIBUTES IN TOSS OBJECT POSITION STATE ARRAY
      PARAMETER ( NATROB = 6 )

      COMMON /PTOSSU/ SUPERO(NOBJMX,NATROB)



! TETHER END POSITION SUMMARY FOR SUPER 3-D SCENE GENERATION
!-----------------------------------------------------------
! MAXIMUM NO OF TOSS TETHERS THAT CAN BE DRAWN
      PARAMETER ( NTTMAX = 25 )
! NO OF ATTRIBUTES IN TETHER END POSITION STATE ARRAY
      PARAMETER ( NATRTT =  6 )

      COMMON /PTOSST/ SUPERT(NTTMAX,NATRTT)

! NOMINAL TOSS TETHER COLORS
!---------------------------
      COMMON /PTOSTL/ TETCOL(NTTMAX,3)



! FINITE TETHER LINE AND PEN SUMMARIES FOR SUPER 3-D SCENE GENERATION
!--------------------------------------------------------------------
! MAXIMUM NO OF FINITE SOLN SEGMENTS (BB'S) THAT CAN BE DRAWN
      PARAMETER ( NBBS = 51 )

      COMMON /PTOSFP/ FINSHP(NBBS,3), FINPEN(NBBS,3)



! COMMON FOR STOSS TEXT DATA
      COMMON  /PTEXT/  DTEXT(72,3)
      CHARACTER DTEXT

! CURRENT RDB NAME COMPONENTS AS ENTERED IN STOSS INPUT STREAM
      COMMON  /PTEXT/  PDBNAM, PDBNUM
      CHARACTER *4 PDBNAM
      CHARACTER *2 PDBNUM

! DEFINE VARIABLES TO CONTAIN DISPLAY LIST WRITE FORMATS
      COMMON  /PTEXT/  SX3FMT, TX3FMT, TXTFMT
      CHARACTER *40    SX3FMT, TX3FMT, TXTFMT

! COMMON FOR STOSS IDENTIFICATION STRING
      COMMON  /PTEXT/ STSID
      CHARACTER *35 STSID



!*****************************************
! INTEGER EQUIVALENCES OF A GENERAL NATURE
!*****************************************
      EQUIVALENCE (ING( 1),NSKI   )
      EQUIVALENCE (ING( 2),NLIN   )
      EQUIVALENCE (ING( 3),NCOUN  )
      EQUIVALENCE (ING( 4),NCR    )
      EQUIVALENCE (ING( 5),NBR    )
      EQUIVALENCE (ING( 6),LASITM )

! I/O UNIT-SPECIFIER VARIABLES FOR STOSS
      EQUIVALENCE (ING( 7), IUIN  )
      EQUIVALENCE (ING( 8), IUOUT )
      EQUIVALENCE (ING( 9), IUCRT )
      EQUIVALENCE (ING(10), IUERR )

!     EQUIVALENCE (ING(11),        UNASSIGNED   )

! RUN COUNTER FOR STOSS MULTIPLE RUN INVOCATION
      EQUIVALENCE (ING(12),JRUNS)

! BATCH MODE/INTERACTIVE MODE SYSTEM DEFINITOR
      EQUIVALENCE (ING(13),LBATCI  )


!     EQUIVALENCE (ING(14),        UNASSIGNED   )
!          "
!     EQUIVALENCE (ING(46),        UNASSIGNED   )

! PARAMETER: TOTAL NUMBER OF FINITE TETHER SOLNS THAT CAN BE DRAWN
      EQUIVALENCE (ING(47), NFINMX     )

! MAIN-FRAME 7 CHAR FILE NAME WINDOW GENERATION OPTION SPECIFIER
      EQUIVALENCE (ING(48), NAME7  )

! VARIABLES: FLAG INDICATING NEW RDB NAME ENTRY VIA STOSS INPUT
!--------------------------------------------------------------
      EQUIVALENCE (ING(49), NPMFLG )

! VARIABLES: NUMBER OF LINE SEGMENTS IN A GIVEN FINITE TETHER DRAWING
      EQUIVALENCE (ING(50), NLINF  )

! VARIABLES: PHOSPHOR TRAIL POINTERS
      DIMENSION NPPSTR(9), NPPCUR(9), NPPOLD(9), NPPCNT(9)
      EQUIVALENCE (ING(51), NPPSTR(1)  )
      EQUIVALENCE (ING(60), NPPCUR(1)  )
      EQUIVALENCE (ING(69), NPPOLD(1)  )
      EQUIVALENCE (ING(78), NPPCNT(1)  )

! PARAMETER: TOTAL NUMBER OF PHOSPHORS THAT CAN BE DRAWN
      EQUIVALENCE (ING(87), NPHOMX     )

! VARIABLES: TOTAL NUMBER OF PHOSPHORS IN USE
      EQUIVALENCE (ING(88), NPPTOT     )

!     EQUIVALENCE (ING( 89),       UNASSIGNED      )
!          "
!     EQUIVALENCE (ING(100),       END OF INTEGERS )


!*****************************************
! LOGICAL EQUIVALENCES OF A GENERAL NATURE
!*****************************************
      EQUIVALENCE (LOGI(1),PROCE ), (LOGI(2),NOEN ), (LOGI(3),STAR ),   &
     &            (LOGI(4),RUNFL )

      LOGICAL PROCE, NOEN, STAR, RUNFL


!***************************
! REAL VARIABLE EQUIVALENCES
!***************************
! STOSS STANDARD TIME (EQUIVALENT TO GTOSS TIME)
      EQUIVALENCE (PR(1),DTIME )

! INPUT: REAL EQUIVALENCES ASSOCIATED W/BASIC CONTROL FOR STOSS
      EQUIVALENCE (PR(2),TMX   )

! INPUT: SKIP/START/DURATION FOR ALL DISPLAYS - 1ST PERIOD
      EQUIVALENCE (PR(3),TSKI1 )
      EQUIVALENCE (PR(4),TSAR1 )
      EQUIVALENCE (PR(5),TDU1  )
! INPUT: SKIP/START/DURATION FOR ALL DISPLAYS - 2ND PERIOD
      EQUIVALENCE (PR(6),TSKI2 )
      EQUIVALENCE (PR(7),TSAR2 )
      EQUIVALENCE (PR(8),TDU2  )
! INPUT: SKIP/START/DURATION FOR ALL DISPLAYS - 3RD PERIOD
      EQUIVALENCE (PR(9), TSKI3 )
      EQUIVALENCE (PR(10),TSAR3 )
      EQUIVALENCE (PR(11),TDU3  )
! INPUT: SKIP/START/DURATION FOR ALL DISPLAYS - 4TH PERIOD
      EQUIVALENCE (PR(12),TSKI4 )
      EQUIVALENCE (PR(13),TSAR4 )
      EQUIVALENCE (PR(14),TDU4  )

!     EQUIVALENCE (PR(15),            UNASSIGNED   )

! FLAG TO CONTROL BATCH MODE AND CRT OUTPUT OF PROGRESS
      EQUIVALENCE (PR(16), BATCON )

!     EQUIVALENCE (PR(17),            UNASSIGNED   )
!          "
!     EQUIVALENCE (PR(32),            UNASSIGNED   )


! VARIABLES: TIME INTERVAL BETWEEN SNAP SHOTS (AND LAST SNAP SHOT TIME)
      EQUIVALENCE (PR(33),  DELSNP )
      EQUIVALENCE (PR(34),  DTIMEL )

!     EQUIVALENCE (PR( 35),            UNASSIGNED   )
!          "
!     EQUIVALENCE (PR( 78),            UNASSIGNED   )



!******************************************
! USER DEFINED ANIMATION DISPLAY ATTRIBUTES
!******************************************
!----------------------------------------------------
! INPUT: TOSS ORBIT FRAME DISPLAY UNIT VECTOR SCALING
!----------------------------------------------------
! INPUT: DEFAULTS TO 50.0 UNITS OF LENGTH
      DIMENSION                     UVOSC(3)
      EQUIVALENCE( PR( 79), UVOSCX, UVOSC(1) )
      EQUIVALENCE( PR( 80), UVOSCY           )
      EQUIVALENCE( PR( 81), UVOSCZ           )



!-----------------------------------------------
! INPUT: CONTROL OF SPECIAL TETHER FRAME DISPLAY
!        0.0 = STANDARD ANIMATION
!        1.0 = TETHER FRAME ANIMATION
!-----------------------------------------------
! =======================> NOT IMPLEMENTED YET <======================
! INPUT: DEFINE FINITE SOLN NUMBER FOR TETHER FRAME DISPLAY (TYPE 1.0)
      EQUIVALENCE( PR( 82), FINSPC   )
! INPUT: DEFINITOR OF ANIMATION DISPLAY TYPE
      EQUIVALENCE( PR( 83), DISTYP   )



!----------------------------------
! INPUT: MAIN SCENE DISPLAY CONTROL
!----------------------------------
! INPUT: USER DEFINED ORIGIN OF CENTER OF MAIN SCENE (DEFAULTS TO 0,0,0)
! (IN SMALL SCREEN WINDOW: HORIZONTAL+/-220 UNITS, VERTICAL+/-125 UNITS)
! (IN  FULL SCREEN WINDOW: HORIZONTAL+/-250 UNITS, VERTICAL+/-160 UNITS)
      DIMENSION             OMAIN(3)
      EQUIVALENCE( PR( 84), OMAIN(1) )
      EQUIVALENCE( PR( 84), OMAINX   )
      EQUIVALENCE( PR( 85), OMAINY   )
      EQUIVALENCE( PR( 86), OMAINZ   )

! INPUT: USER DEFINED ORIENTATION OF MAIN SCENE
!   IF: 0,0,0 (DEFAULT)  YOU LOOK ALONG, BUT TO, OPPOSITE TO ORB DIRECTION
!   IF: RMAINY = 90.0    YOU SEE SIDE VIEW OF ORB (WHICH GOES TO RIGHT)
      DIMENSION             RMAIN(3)
      EQUIVALENCE( PR( 87), RMAIN(1) )
      EQUIVALENCE( PR( 87), RMAINX   )
      EQUIVALENCE( PR( 88), RMAINY   )
      EQUIVALENCE( PR( 89), RMAINZ   )

! INPUT: USER DEFINED INITIAL SCALING OF MAIN SCENE (DEFAULT =1.0, 1.0, 1.0)
      DIMENSION             SMAIN(3)
      EQUIVALENCE( PR( 90), SMAIN(1) )
      EQUIVALENCE( PR( 90), SMAINX   )
      EQUIVALENCE( PR( 91), SMAINY   )
      EQUIVALENCE( PR( 92), SMAINZ   )

! INPUT: AUTO SCALING-UPDATE THRESHOLD DEADBAND
      EQUIVALENCE( PR( 93), QUANSC   )

! INPUT: VIEWPOINT POSITION IN MAIN SCENE
! ===================> NOT IMPLEMENTED YET <========================
      EQUIVALENCE( PR( 94), VPMSXO )
      EQUIVALENCE( PR( 95), VPMSYO )
      EQUIVALENCE( PR( 96), VPMSZO )

! INPUT: VIEWPOINT DIRECTION IN MAIN SCENE (NOT DEFINED YET)
! ===================> NOT IMPLEMENTED YET <========================
      EQUIVALENCE( PR( 97), VDMSEO )
      EQUIVALENCE( PR( 98), VDMSAO )


!------------------------------------------------------------
! INPUT: SPECIFY WHETHER AUTOSCALING IS FOR MAC+/SE OR  MACII
!------------------------------------------------------------
! INPUT: 0.0 DEFAULTS MAC II SCREEN SIZE;  1.0 SPECIFIES MAC+ OR SE
      EQUIVALENCE (PR( 99), SEOR2  )

! INPUT: 1.0 VANISHES ALL TEXT BLOCKS
      EQUIVALENCE (PR(100), TEXOFF )

!--------------------------------
! INPUT: SCALING OPTION SPECIFIER
!--------------------------------
      EQUIVALENCE( PR(101), SCLTYP )


!----------------------------------------------
! INPUT: SPECIAL TOSS OBJECT 1 (REF PT) CONTROL
!----------------------------------------------
! INPUT: INITIAL AXIS-SPECIFIC SCALING OF TOSS OBJECT 1
      EQUIVALENCE( PR(102), OBJ1SX )
      EQUIVALENCE( PR(103), OBJ1SY )
      EQUIVALENCE( PR(104), OBJ1SZ )


!-----------------------------
! INPUT: MISCELLANEOUS CONTROL
!-----------------------------

! INPUT: SPECIAL TOSS OBJECT PHOSPHOR TRACE CONTROL
!--------------------------------------------------
! NUMBER OF POINTS IN PHOSPHOR TRACE FOR EACH OBJECT
      DIMENSION             OPPCNT(9)
      EQUIVALENCE( PR(105), OPPCNT(1) )
!          "
!     EQUIVALENCE( PR(113), OPPCNT(9) )


! INPUT: LOGARTHMIC PHOSPHOR TRAIL OPTION
! ===================> NOT IMPLEMENTED YET <========================
      EQUIVALENCE (PR(114), PHOLOG  )

! INPUT: PREEMPTIVE PHOSPHOR TRAIL COLOR
      EQUIVALENCE (PR(115), OPPENO  )


! INPUT: SPECIAL TEXT DISPLAYS
!-----------------------------
      EQUIVALENCE (PR(116), SHOTEN  )
      EQUIVALENCE (PR(117), SHOLAT  )
      EQUIVALENCE (PR(118), SHOPWR  )
      EQUIVALENCE (PR(119), SHOLEN  )

!     EQUIVALENCE (PR(120),            RESERVED   )
!          "
!     EQUIVALENCE (PR(124),            RESERVED   )



! INPUT: TOSS OBJECT SCALING OPTIONS
!-----------------------------------
! INPUT: "GLOBAL" OBJECT DISPLAY SIZING
      EQUIVALENCE( PR(125), SIZALL )

! INPUT: "OBJECT-SPECIFIC" DISPLAY SIZES (DEFAULTS ARE RP=1.0, TOSS OBJECTS=.5)
      DIMENSION             OSIZEO(9)
      EQUIVALENCE( PR(126), OSIZEO(1) )
!          "
!     EQUIVALENCE( PR(134), OSIZEO(9) )


! INPUT: VIEWPOINT POSITION IN ORB FRAME (NOT DEFINED YET)
!---------------------------------------------------------
! ===================> NOT IMPLEMENTED YET <========================
      EQUIVALENCE( PR(135), VPOFXO )
      EQUIVALENCE( PR(136), VPOFYO )
      EQUIVALENCE( PR(137), VPOFZO )

! INPUT: VIEWPOINT DIRECTION IN ORB FRAME
! ===================> NOT IMPLEMENTED YET <========================
      EQUIVALENCE( PR(138), VDOFEO )
      EQUIVALENCE( PR(139), VDOFAO )


! INPUT: USER DEFINED SCALING MAGNIFIER
!--------------------------------------
      EQUIVALENCE( PR(140), SCLMAG )

! INPUT: TETHER FRAME DEFLECTION MAGNIFICATION RATIO (DEFAULTS TO 1.0)
!---------------------------------------------------------------------
      DIMENSION                     SCLTFO(3)
      EQUIVALENCE( PR(141), SCLXTO, SCLTFO(1) )
      EQUIVALENCE( PR(142), SCLYTO            )
      EQUIVALENCE( PR(143), SCLZTO            )


! INPUT: PAUSE COUNT REQUEST ON ANIMATION START
!----------------------------------------------
      EQUIVALENCE (PR(144), PAWSCN )


! INPUT: SPECIFY OBJECTS AS BLACK-ON-WHITE (DEFAULT) OR WHITE-ON-BLACK
!--------------------------------------------------------------------
      EQUIVALENCE( PR(145), BLKWHT )


! INPUT: SPECIFY COLOR FOR SLACK TETHER DEPICTION
!------------------------------------------------
      EQUIVALENCE( PR(146), SLKCOL )

! INPUT: ACTIVATE LONGITUDINAL DYNAMICS/SPECIFY GREY GAIN FACTOR
!---------------------------------------------------------------
      EQUIVALENCE (PR(147), FACLON )


!     EQUIVALENCE (PR(148),            UNASSIGNED   )
!     EQUIVALENCE (PR(149),            UNASSIGNED   )


!************************************************
! WORKING VARIABLES FOR PROGRAM ANIMATION DISPLAY
!************************************************
! VARIABLES: OBJECT DISPLAY SIZES
      DIMENSION             OSIZE(9)
      EQUIVALENCE( PR(150), OSIZE(1) )
!          "
!     EQUIVALENCE( PR(158), OSIZE(9) )

! VARIABLES: VIEWPOINT POSITION IN ORB FRAME
      EQUIVALENCE( PR(159), VUPTX )
      EQUIVALENCE( PR(160), VUPTY )
      EQUIVALENCE( PR(161), VUPTZ )

! VARIABLES: VIEWPOINT DIRECTION IN ORB FRAME
      EQUIVALENCE( PR(162), VUDRE )
      EQUIVALENCE( PR(163), VUDRA )

! VARIABLES: TETHER FRAME DEFLECTION USER DEFINED SCALING (PREEMPTS AUTO SCALING)
      DIMENSION                    SCLTF(3)
      EQUIVALENCE( PR(164), SCLXT, SCLTF(1) )
      EQUIVALENCE( PR(165), SCLYT           )
      EQUIVALENCE( PR(166), SCLZT           )

! VARIABLES: FINITE TETHERS X-END/Y-END COORDS IN SUPER FRAME
      DIMENSION             XENPOS(3),  YENPOS(3)
      EQUIVALENCE( PR(167), XENPOS(1) )
      EQUIVALENCE( PR(170), YENPOS(1) )

! VARIABLES: BIAS FOR FIXED DISPLAY CENTER WR/T REF PT IN ORB FRAME
      DIMENSION                     BCENO(3)
      EQUIVALENCE( PR(173), BCENXO, BCENO(1) )
      EQUIVALENCE( PR(174), BCENYO           )
      EQUIVALENCE( PR(175), BCENZO           )

! VARIABLES: OFFICIAL SCREEN SIZE TO USE IN SCENE SCALING
      EQUIVALENCE( PR(176), SCNSIZ )

! VARIABLES: SUGGESTED GEOMETRY-BASED ANALYTICAL SCALE FACTOR
      EQUIVALENCE (PR(177), AUTOSL )

! VARIABLES: INITIAL SUGGESTED GEOMETRY-BASED ANALYTICAL SCALE FACTOR
      EQUIVALENCE (PR(178), AUTOSI )

! VARIABLES: OFFICIAL ANALYTICAL DIMENSIONAL SCALE FACTOR
      EQUIVALENCE (PR(179), SCNSCL )

! VARIABLES: OFFICIAL SCALE FACTOR RATIO FOR MAIN SCENE
      EQUIVALENCE (PR(180), SCALE  )

! VARIABLES: PREVIOUS VALUE OF SCALE FACTOR RATIO FOR MAIN SCENE
      EQUIVALENCE( PR(181), SCALEL )


!     EQUIVALENCE (PR(182),            UNASSIGNED   )
!     EQUIVALENCE (PR(183),            UNASSIGNED   )


! VARIABLES: STANDARD BLACK AND WHITE RGB TRIAD FOR ALL TO USE
      DIMENSION             BLACK(3),   WHITE(3)
      EQUIVALENCE( PR(184), BLACK(1) )
      EQUIVALENCE( PR(187), WHITE(1) )


!---------------------------------------------------------
! PARAMETERS 190 TO 200 ARE RESERVED AS OUTSIDE USER INPUT
! AND WILL NOT BE EMPLOYED BY ANY STANDARD CTOSS FUNCTIONS
!---------------------------------------------------------
!     EQUIVALENCE (PR(190),  RESERVED FOR OUTSIDERS USE  )
!         "            "              "
!     EQUIVALENCE (PR(200),  RESERVED FOR OUTSIDERS USE  )
!---------------------------------------------------------


! VARIABLES: TOSS TETHER INITIAL NOTED LENGTHS (FOR DEPLOY DETECTION)
      DIMENSION             TLZERO(25)
      EQUIVALENCE( PR(201), TLZERO(1)  )
!         "
!     EQUIVALENCE( PR(225), TLZERO(25) )


!     EQUIVALENCE (PR(226),            UNASSIGNED   )


!-----------------------------
! INPUT: COLOR AND PEN CONTROL
!-----------------------------
! INPUT: TETHER PREEMPTIVE LINE COLOR CONTROL
      DIMENSION             TTPENO(25)
      EQUIVALENCE( PR(227), TTPENO( 1) )
!         "
!     EQUIVALENCE( PR(251), TTPENO(25) )

! INPUT: TOSS OBJECT PREEMPTIVE LINE COLOR CONTROL
      DIMENSION             OBPENO(9)
      EQUIVALENCE( PR(252), OBPENO(1) )
!         "
!     EQUIVALENCE( PR(260), OBPENO(9) )

! INPUT: TOSS OBJECT PREEMPTIVE POLY-FILL COLOR CONTROL
      DIMENSION             OBFILO(9)
      EQUIVALENCE( PR(261), OBFILO(1) )
!         "
!     EQUIVALENCE( PR(269), OBFILO(9) )

! INPUT: ORBIT FRAME PREEMPTIVE LINE AND FILL COLOR CONTROL
      EQUIVALENCE( PR(270), OFPENO    )
      EQUIVALENCE( PR(271), OFFILO    )


!     EQUIVALENCE( PR(272),            UNASSIGNED   )
!         "
!     EQUIVALENCE( PR(297),            UNASSIGNED   )


! INPUT: PREEMPTIVE TEXT FILL COLOR REQUEST (FOR 7 OFFICIAL BLOCKS)
      DIMENSION             TXBFIL(7)
      EQUIVALENCE( PR(298), TXBFIL(1) )
!         "
!     EQUIVALENCE( PR(304), TXBFIL(7) )

!     EQUIVALENCE (PR(305), RESERVED FOR FUTURE USE   )
!          "                                "
!     EQUIVALENCE (PR(311), RESERVED FOR FUTURE USE   )


! INPUT: SPECIAL USER RGB COLOR SPECIFICATIONS
      DIMENSION             RGBS1(3),  RGBS2(3), RGBS3(3), RGBS4(3)
      EQUIVALENCE( PR(312), RGBS1(1) )
      EQUIVALENCE( PR(315), RGBS2(1) )
      EQUIVALENCE( PR(318), RGBS3(1) )
      EQUIVALENCE( PR(321), RGBS4(1) )

! INPUT: TEXT DISPLAY STYLE AND FONT SIZE
      EQUIVALENCE( PR(324), PTSIZE   )
      EQUIVALENCE( PR(325), STYLE    )


!     EQUIVALENCE (PR(326),            UNASSIGNED     )
!          "                                "
!     EQUIVALENCE (PR(377),            UNASSIGNED     )



! INPUT: DATA ITEMS USED FOR TETHER VISIBILITY OPTION
!----------------------------------------------------
! INPUT: ACTIVATE FLAG FOR TETHER VISIBILITY OPTION
      EQUIVALENCE (PR(378), VISTON   )

! INPUT: BEGIN/END POINT FOR TETHER VISIBILITY
      EQUIVALENCE (PR(379), VISPT1   )
      EQUIVALENCE (PR(380), VISPT2   )

! INPUT: BEGIN/END GRAY SCALE VALUE
      EQUIVALENCE (PR(381), VISGS1   )
      EQUIVALENCE (PR(382), VISGS2   )


! INPUT: OBJECT ATTITUDE ACTIVE DISPLAY ENABLE FLAG
!--------------------------------------------------
      DIMENSION             ROTFLG(9)
      EQUIVALENCE( PR(383), ROTFLG(1) )
!         "
!     EQUIVALENCE( PR(391), ROTFLG(9) )


! INPUT: DATA DEFINING MAGNETIC VECTOR PORTRAYAL
!-----------------------------------------------
! INPUT: SCALING OF MAG VEC LENGTH (ACTIVATES FEATURE)
      EQUIVALENCE (PR(392), VVSCLO  )

! INPUT: POSITION OF MAGNETIC VECTOR ORIGIN IN TOSS ORB FRAME
      DIMENSION                    VVPO(3)
      EQUIVALENCE( PR(393), VVPOX, VVPO(1) )
      EQUIVALENCE( PR(394), VVPOY          )
      EQUIVALENCE( PR(395), VVPOZ          )

! INPUT: PEN/FILL COLORS FOR MAGNETIC VECTOR
      EQUIVALENCE (PR(396), VVPENO  )
      EQUIVALENCE (PR(397), VVFILO  )


! INPUT: DATA ITEMS USED FOR TENSION DEPICTION
!---------------------------------------------
! INPUT: GREY-RANGE TO DEPICT TENSION VARIATION ON ONE SIDE OF AVER
      EQUIVALENCE (PR(398), GRYVAR   )

! INPUT: NO TENSION DEPICTION DEADBAND (UNITS: FRAC OF AVER TENS)
      EQUIVALENCE (PR(399), TENSDB   )

! INPUT: GREY LEVEL ASSOCIATED WITH RUNNING AVERAGE TENSION
      EQUIVALENCE (PR(400), GRYREF   )



! VARIABLES: CURRENT TETHER PEN COLOR INDICATOR
      DIMENSION             TCHG(25)
      EQUIVALENCE( PR(401), TCHG( 1) )
!         "
!     EQUIVALENCE( PR(425), TCHG(25) )

! VARIABLES: LAST (PREVIOUS) TETHER PEN COLOR INDICATOR
      DIMENSION             TCHGL(25)
      EQUIVALENCE( PR(426), TCHGL( 1) )
!         "
!     EQUIVALENCE( PR(450), TCHGL(25) )


! INPUT: TOSS TETHER DISPLAY INHIBIT FLAGS
!-----------------------------------------
      DIMENSION             TINHIB(25)
      EQUIVALENCE( PR(451), TINHIB( 1) )
!         "
!     EQUIVALENCE( PR(475), TINHIB(25) )


!-----------------------------------------------
! INPUT: TOSS OBJECT INITIAL ORIENTATION CONTROL
!-----------------------------------------------
! INPUT: INITIAL ROTATION OF TOSS OBJECTS WR/T REF PT ORBIT FRAME
!        (NOTE: IN TERMS OF EULER ANGLES OF SPECIFIED TYPE)
      DIMENSION             THTORO(9), PSIORO(9), PHIORO(9)
      EQUIVALENCE( PR(476), THTORO(1) )
      EQUIVALENCE( PR(485), PSIORO(1) )
      EQUIVALENCE( PR(494), PHIORO(1) )

! INPUT: SPECIFICATION OF EULER ANGLE TYPE FOR ROTATION DATA INPUT
      EQUIVALENCE( PR(503), EITYPE    )


! INPUT: DATA DEFINING 2 ARBITRARY OBJECTS PORTRAYAL
! (THE FOLLOWING INPUT ITEMS ARE ACTIVATED FOR SPECIAL
!  USE, AND ARE NOT SHOWN IN THE STOSS INPUT SKELETON)
!-----------------------------------------------------
! INPUT: INITIAL SCALING OF ARBITRARY OBJECTS
      EQUIVALENCE (PR(504), XX1SLO  )
      EQUIVALENCE (PR(505), XX2SLO  )

! INPUT: INITIAL POSITION OF ARBITRARY OBJECT 1 ORIGIN IN TOSS ORB FRAME
      DIMENSION                     XX1PO(3)
      EQUIVALENCE( PR(506), XX1POX, XX1PO(1) )
      EQUIVALENCE( PR(507), XX1POY           )
      EQUIVALENCE( PR(508), XX1POZ           )

! INPUT: INITIAL POSITION OF ARBITRARY OBJECT 2 ORIGIN IN TOSS ORB FRAME
      DIMENSION                     XX2PO(3)
      EQUIVALENCE( PR(509), XX2POX, XX2PO(1) )
      EQUIVALENCE( PR(510), XX2POY           )
      EQUIVALENCE( PR(511), XX2POZ           )

! INPUT: PEN COLORS FOR ARBITRARY OBJECTS
      EQUIVALENCE (PR(512), XX1PEN  )
      EQUIVALENCE (PR(513), XX2PEN  )

! INPUT: FILL COLORS FOR ARBITRARY OBJECTS
      EQUIVALENCE (PR(514), XX1FIL  )
      EQUIVALENCE (PR(515), XX2FIL  )

! INPUT: INITIALIZATION PEN COLOR FOR ALL FINITE SOLNS OBJECTS
      EQUIVALENCE (PR(516), FSPENO  )

!----------------------------------------
! END OF SPECIAL CONTROL INPUT DATA ITEMS
!----------------------------------------


! INPUT  PERTAINING TO SPECIFICATION OF FIXED ORB
! FRAME DISPLAY CENTER FOR ANIMATION SCENE MOTION
!----------------------------------------------
! INPUT: FLAG TO SELECT FIXED DISPLAY CENTER BIAS
      EQUIVALENCE( PR(517), CENFLG )

! INPUT: USED DEFINED FIXED DISPLAY POINT IN ORB FRAME WR/T TOSS REF PT
      DIMENSION                     UCENO(3)
      EQUIVALENCE( PR(518), UCENXO, UCENO(1) )
      EQUIVALENCE( PR(519), UCENYO           )
      EQUIVALENCE( PR(520), UCENZO           )


! INPUT: PREEMPTIVE TEXT BLOCK WRITE INHIBIT (FOR 7 OFFICIAL BLOCKS)
      DIMENSION             TXBOFF(7)
      EQUIVALENCE( PR(521), TXBOFF(1) )
!         "
!     EQUIVALENCE( PR(527), TXBOFF(7) )

!     EQUIVALENCE (PR(528), RESERVED FOR FUTURE USE   )
!          "                                "
!     EQUIVALENCE (PR(534), RESERVED FOR FUTURE USE   )


! INPUT: USED DEFINED TIME DEPENDENT SCALING
!-------------------------------------------
! INPUT: ABSOLUTE START AND STOP TIME
      EQUIVALENCE( PR(535), TSCLON )
      EQUIVALENCE( PR(536), TSCLOF )

! INPUT: TIME DURATION, BEGIN/END MULTIPLIERS FOR PERIODS 1 THRU 5
      EQUIVALENCE( PR(537), TSINV1 )
      EQUIVALENCE( PR(538), BGSCL1 )
      EQUIVALENCE( PR(539), ENSCL1 )

      EQUIVALENCE( PR(540), TSINV2 )
      EQUIVALENCE( PR(541), BGSCL2 )
      EQUIVALENCE( PR(542), ENSCL2 )

      EQUIVALENCE( PR(543), TSINV3 )
      EQUIVALENCE( PR(544), BGSCL3 )
      EQUIVALENCE( PR(545), ENSCL3 )

      EQUIVALENCE( PR(546), TSINV4 )
      EQUIVALENCE( PR(547), BGSCL4 )
      EQUIVALENCE( PR(548), ENSCL4 )

      EQUIVALENCE( PR(549), TSINV5 )
      EQUIVALENCE( PR(550), BGSCL5 )
      EQUIVALENCE( PR(551), ENSCL5 )


!     EQUIVALENCE (PR(552),            UNASSIGNED     )
!          "                                "
!     EQUIVALENCE (PR(800),            LAST PARAMETER )
!======================================================

