! COMDECK COM_UOSS
! %Z%GTOSS %M% H.12 code v01.3
!              H.12 code v01.3 Added "1st pass flag" for all fmts to use
!-----------------------------------------------------------------------
!              H.10 code v01.2  Increased NOUTP from 5600 to 7000
!                               for animation needs.
!                               Added new input parameters for Fmt 9.
!----------------------------------------------------------
!                  code v01.01 (baseline for vG.1 delivery)
!**********************************************
!**********************************************
!
!  GENERAL COMMON FOR UTOSS RESULTS DATA BASE
!        POST-PROCESSING DISPLAY SYSTEM
!
!**********************************************
!**********************************************

! THIS IS AN 'INCLUDE' FILE CONTAINING COMMON FOR
! DISPLAY POST-PROCESSING

! THIS COMMON IS BEST DESCRIBED AND UNDERSTOOD IN
! VIEW OF THE FOLLOWING OBSERVATIONS:

!   1. IT BUILDS UPON ALL THE OTHER OFFICIAL GTOSS
!      AND TOSS COMMON INCLUDE FILES AS SUPPLEMENTS

!   2. BY INCORPORATING THESE OTHER INCLUDE FILES,
!      STORAGE ALLOCATION REQUIRED FOR GTOSS/TOSS
!      DATA RECONSTRUCTION, ARE AUTOMATICALLY AND
!      CONSISTENTLY MAINTAINED.

!   3. BY THIS MECHANISM, THE POST PROCESSING
!      DISPLAY ROUTINES CAN INVOKE THE ACTUAL WORKING
!      ARRAY NAME EQUIVALENCE INCLUDE FILES FOR USE
!      IN STORING RESULTS OF THE RDB DATA EXTRACTIONS.

!   4. FUNCTIONING OF THE DISPLAY ROUTINES DRAW
!      HEAVILY UPON VARIOUS INTEGER COMMON ALLOCATIONS
!      EXISTING IN GTOSS FOR SPECIFICATION OF RESULTS
!      DATA BASE FILE MANIPULATION VARIABLES. THIS SHOULD
!      BE SELF MAINTAINING AND CONSISTENT SINCE BOTH
!      PROGRAMS REFER TO THE SAME DATA BASE FILES.


! COMMON FOR GENERAL DATA VARIABLES
!----------------------------------
! STATE SIZE OF THIS COMMON ARRAY
      PARAMETER ( NPR = 250 )
      COMMON /PTOSR/ PR(NPR)


! COMMON FOR INTEGER VARIABLES
!-----------------------------
! STATE SIZE OF THIS COMMON ARRAY
      PARAMETER ( NING = 150 )
      COMMON /PTOSI/ ING(NING)
      INTEGER ING


! COMMON FOR LOGICAL VARIABLES
!-----------------------------
! STATE SIZE OF THIS COMMON ARRAY
      PARAMETER ( NLOGI = 15 )
      COMMON /PTOSL/ LOGI(NLOGI)
      LOGICAL LOGI



!----------------------
! SPECIAL BUFFER ARRAYS
!----------------------
! STATE SIZE OF THE DATA BUFFER ARRAYS BELOW
      PARAMETER ( NOUTP = 7000 )

! REAL DATA BUFFER ARRAYS FOR ALL TO USE
!---------------------------------------
! STATE SIZE OF THIS COMMON ARRAY AND DEFINE REAL DATA SIZE FOR OUTPUT
      REAL *4 OUTP
      REAL *4 OUTMIN
      REAL *4 OUTMAX
      COMMON /PTOSO/ OUTP(NOUTP), OUTMIN(NOUTP), OUTMAX(NOUTP)

! CHARACTER BUFFER ARRAY FOR ALL TO USE
!--------------------------------------
      COMMON  /PTEXT/ ULABEL(NOUTP)
      CHARACTER *16 ULABEL



!---------------------------
! COMMON FOR UTOSS TEXT DATA
!---------------------------
      COMMON  /PTEXT/ DTEXT(72,3), FF
      CHARACTER DTEXT, FF

! INGREDIENTS FOR SEVEN CHARACTER EXPORT FILE NAME FOR MAIN-FRAMES
      COMMON  /PTEXT/ C7NAME, XFNAM,  XFNAML, XFAM
      CHARACTER *7 C7NAME, XFNAM, XFNAML
      CHARACTER *5 XFAM

! CURRENTLY ACCESSED (STANDARDIZED SEQ) IMPORT DATA FILE NAME
      COMMON  /PTEXT/ NAMIMP
      CHARACTER *7 NAMIMP

! CURRENT RDB NAME COMPONENTS AS ENTERED IN UTOSS INPUT STREAM
      COMMON  /PTEXT/  PDBNAM, PDBNUM
      CHARACTER *4 PDBNAM
      CHARACTER *2 PDBNUM

! COMMON FOR WINDOW DEFINITION (HDR START, COL DEFINITOR, ROW DEFINITOR)
      COMMON  /PTEXT/  AST, HT, CR
      CHARACTER AST, HT, CR

! COMMON FOR UTOSS IDENTIFICATION STRING
      COMMON  /PTEXT/ UTSID
      CHARACTER *35 UTSID

! COMMON FOR TEXT DEFINING EXPORT DATA FILE FULL NAMES
      COMMON  /PTEXT/  CKFNAM(7)
      CHARACTER *30 CKFNAM

! COMMON FOR MISC TEXT INVOLVING FULL NAMING OPTION
      COMMON  /PTEXT/ CKFMT(7), CKTTN(7), CKOBJ(7), CKSOL(7)
      CHARACTER *3 CKFMT
      CHARACTER *2 CKTTN
      CHARACTER *1 CKOBJ, CKSOL


!-----------------------------------------
! LOGICAL EQUIVALENCES OF A GENERAL NATURE
!-----------------------------------------
      EQUIVALENCE (LOGI(1),PROCE ), (LOGI(2),NOEN ), (LOGI(3),STAR ),   &
     &            (LOGI(4),RUNFL )

      LOGICAL PROCE, NOEN, STAR, RUNFL


!-----------------------------------------
! INTEGER EQUIVALENCES OF A GENERAL NATURE
!-----------------------------------------
      EQUIVALENCE (ING(1), NSKI   )
      EQUIVALENCE (ING(2), NLIN   )
      EQUIVALENCE (ING(3), NCOUN  )
      EQUIVALENCE (ING(4), NCR    )
      EQUIVALENCE (ING(5), NBR    )
      EQUIVALENCE (ING(6), LASITM )

! DEFINE GENERAL I/O UNIT-SPECIFIER VARIABLES FOR UTOSS
      EQUIVALENCE (ING(7),  IUIN    )
      EQUIVALENCE (ING(8),  IUOUT   )
      EQUIVALENCE (ING(9),  IUCRT   )
      EQUIVALENCE (ING(10), IUERR   )

! DEFINE I/O UNIT-SPECIFIER FOR MULTI-EXPORT FILES
      DIMENSION             IOUP(7)
      EQUIVALENCE (ING(11), IOUP(1) )

! FIRST PASS FLAG AVAILABLE TO, AND SETTABLE BY ANY FORMAT
      EQUIVALENCE (ING(18), IFIRST_FLG )

! BATCH MODE/INTERACTIVE MODE SYSTEM DEFINITOR
      EQUIVALENCE (ING(19), LBATCC )

! INTEGER EQUIVALENCES ASSOCIATED WITH MULTI FILE GENERATION
      EQUIVALENCE (ING(20), LIMPDS )
      EQUIVALENCE (ING(21), NOBJZ  )
      EQUIVALENCE (ING(22), NCHUZ  )
      EQUIVALENCE (ING(23), NFTSHO )
!     EQUIVALENCE (ING(24),             UNASSIGNED )
      EQUIVALENCE (ING(25), NTTSHO )
!     EQUIVALENCE (ING(26),             UNASSIGNED )
!     EQUIVALENCE (ING(27), NUNIT  )
      EQUIVALENCE (ING(28), NTPEUL )
      EQUIVALENCE (ING(29), NTPLIB )

!     EQUIVALENCE (ING(30),             UNASSIGNED )
!          "
!     EQUIVALENCE (ING(34),             UNASSIGNED )


! FLAGS INDICATING IF A SNAPSHOT HAS BEEN TAKEN
!----------------------------------------------
      DIMENSION             NSNAP(39)
      EQUIVALENCE (ING(35), NSNAP( 1) )


!     EQUIVALENCE (ING(74),             UNASSIGNED )
!          "
!     EQUIVALENCE (ING(90),             UNASSIGNED )


! TETHER SHAPE EVENT ENUNCIATOR
      EQUIVALENCE (ING(91), NSHPEV )

! MAIN-FRAME 7 CHAR FILE NAME WINDOW GENERATION OPTION SPECIFIER
      EQUIVALENCE (ING(94), NAME7  )

! FILE-NAME ID RUN-COUNTER FOR MAIN-FRAME WINDOW GENERATION OPTION
      EQUIVALENCE (ING(95), JRUNS  )

! LINE COUNT FOR EXTRACTING DATA FROM IMPORT FILE FOR RDB CREATION
      EQUIVALENCE (ING(96), IULIN  )

! IMPORT DATA INPUT FILE COUNTER (FOR FILE NAMING CONVENTION)
      EQUIVALENCE (ING(97), NUINF  )

! FLAG INDICATING NEW RDB NAME ENTRY VIA UTOSS INPUT
      EQUIVALENCE (ING(98), NPMFLG )

! SPECIFIER TO IMPORT FORMATS FOR EULER ANGLE TYPE
      EQUIVALENCE (ING(99), NEULIM )

!     EQUIVALENCE (ING(100),             UNASSIGNED )
!          "
!     EQUIVALENCE (ING(150),             UNASSIGNED )


!-----------------------------------------------
! REAL VARIABLE EQUIVALENCES OF A GENERAL NATURE
!-----------------------------------------------
! UTOSS STANDARD TIME (EQUIVALENT TO GTOSS TIME)
      EQUIVALENCE (PR(1), DTIME )

! REAL EQUIVALENCES ASSOCIATED W/BASIC CONTROL INPUT FOR UTOSS
      EQUIVALENCE (PR( 2), TMX   )

! SKIP/START/DURATION FOR ALL DISPLAYS - 1ST PERIOD
      EQUIVALENCE (PR( 3), TSKI1 )
      EQUIVALENCE (PR( 4), TSAR1 )
      EQUIVALENCE (PR( 5), TDU1  )
! SKIP/START/DURATION FOR ALL DISPLAYS - 2ND PERIOD
      EQUIVALENCE (PR( 6), TSKI2 )
      EQUIVALENCE (PR( 7), TSAR2 )
      EQUIVALENCE (PR( 8), TDU2  )
! SKIP/START/DURATION FOR ALL DISPLAYS - 3RD PERIOD
      EQUIVALENCE (PR( 9), TSKI3 )
      EQUIVALENCE (PR(10), TSAR3 )
      EQUIVALENCE (PR(11), TDU3  )
! SKIP/START/DURATION FOR ALL DISPLAYS - 4TH PERIOD
      EQUIVALENCE (PR(12), TSKI4 )
      EQUIVALENCE (PR(13), TSAR4 )
      EQUIVALENCE (PR(14), TDU4  )

!     EQUIVALENCE (PR(15),             UNASSIGNED )

! FLAG TO CONTROL BATCH MODE AND CRT OUTPUT OF PROGRESS
      EQUIVALENCE (PR(16), BATCON   )

!     EQUIVALENCE (PR(17),             UNASSIGNED )
!     EQUIVALENCE (PR(18),             UNASSIGNED )
!     EQUIVALENCE (PR(19),             UNASSIGNED )


! PREEMPTIVE EXPORT FILE NAME TYPE SPECIFIER
      EQUIVALENCE (PR(20), FLTYPE )


!     EQUIVALENCE (PR(21),             UNASSIGNED )

! GLOBAL PREEMPTIVE EULER ANGLE DEFINITOR
      EQUIVALENCE (PR(22), GTPEUL    )

! GLOBAL PREEMPTIVE LIBRATION ANGLE DEFINITOR
      EQUIVALENCE (PR(23), GTPLIB    )

! GLOBAL PREEMPTIVE UNITS DEFINITOR
      EQUIVALENCE (PR(24), GLUNIT    )

! REAL EQUIV ASSOCIATED WITH INPUT CONTROL OF MULTI-FILE GENERATION
! (NOTE THAT MOST OF THESE EQUIV CAN BE LARGER THAN SHOWN)
      DIMENSION PUNIT(7),  PCHUZ(7),   POBJZ(7),              PTTSHO(7)
      DIMENSION PFTSHO(7), PNBSHO(11), PNSEGO(11), PTPEUL(7), PTPLIB(7)

      EQUIVALENCE (PR( 25), PUNIT(1)   )

      EQUIVALENCE (PR( 35), PCHUZ(1)   )

      EQUIVALENCE (PR( 45), POBJZ(1)   )

      EQUIVALENCE (PR( 55), PFTSHO(1)  )

!     EQUIVALENCE (PR( 65),              UNASSIGNED )
!          "                                 "
!     EQUIVALENCE (PR( 74),              UNASSIGNED )

      EQUIVALENCE (PR( 75), PTPEUL(1)  )

      EQUIVALENCE (PR( 85), PTPLIB(1)  )

!     EQUIVALENCE (PR( 95),              UNASSIGNED )
!          "                                 "
!     EQUIVALENCE (PR(104),              UNASSIGNED )

      EQUIVALENCE (PR(105), PNBSHO(1) )

      EQUIVALENCE (PR(116), PNSEGO(1) )

      EQUIVALENCE (PR(127), PTTSHO(1) )

!     EQUIVALENCE (PR(134),             UNASSIGNED )
!          "                                "
!     EQUIVALENCE (PR(137),             UNASSIGNED )


! EULER ANGLE TYPE FOR IMPORT DATA RECONSTRUCTION (DEFAULT= TYPE 1)
      EQUIVALENCE (PR(138), EULTYP   )

! IMPORT FORMAT TYPE SPECIFIER
      EQUIVALENCE (PR(139), URTYPE   )

! EXPORT/IMPORT MODE OPTION FLAG
      EQUIVALENCE (PR(140), CXFLAG   )


!---------------------------------------------------------
! REAL EQUIV ASSOCIATED WITH INPUT CONTROL OF DATA SNAPSHOT
!---------------------------------------------------------
! (ALLOWS UP TO 39 SNAPSHOTS AT ARBITRARY SPECIFIED TIMES)
      DIMENSION             TSNAP(39)

      EQUIVALENCE (PR(141), TSNAP( 1)  )
!          "                  "
!     EQUIVALENCE (PR(179), TSNAP(39)  )

!---------------------------------------------------------
! REAL EQUIV ASSOCIATED WITH CONTROL OF ANIMATION FORMAT 9
!---------------------------------------------------------
! ANIMATION PROTOCOL FOR SPACE ANIMATOR VERSION 1
      EQUIVALENCE (PR(180), P9ARBDIS )
      EQUIVALENCE (PR(181), P9FILTYP )
      EQUIVALENCE (PR(182), P9PTREND )

!     EQUIVALENCE (PR(183),                OPEN  )
!          "
!     EQUIVALENCE (PR(189),                OPEN  )

!---------------------------------------------------------
! PARAMETERS 190 TO 200 ARE RESERVED AS OUTSIDE USER INPUT
! AND WILL NOT BE EMPLOYED BY ANY STANDARD CTOSS FUNCTIONS
!---------------------------------------------------------
!     EQUIVALENCE (PR(190),  RESERVED FOR OUTSIDERS USE  )
!         "            "              "
!     EQUIVALENCE (PR(200),  RESERVED FOR OUTSIDERS USE  )
!---------------------------------------------------------

! UNITS CONVERSION FACTORS FOR ALL TO USE
      EQUIVALENCE (PR(201), XFTXMR )
      EQUIVALENCE (PR(202), XMRXFT )
      EQUIVALENCE (PR(203), XLBXNT )
      EQUIVALENCE (PR(204), XNTXLB )
      EQUIVALENCE (PR(205), XDGXRD )
      EQUIVALENCE (PR(206), XRDXDG )
      EQUIVALENCE (PR(207), XFTXNM )
      EQUIVALENCE (PR(208), XNMXFT )
      EQUIVALENCE (PR(209), XPMXKG )
      EQUIVALENCE (PR(210), XSLXKG )
      EQUIVALENCE (PR(211), XMOMTM )
      EQUIVALENCE (PR(212), XMOMTE )

!     EQUIVALENCE (PR(213),                OPEN  )
!          "
!     EQUIVALENCE (PR(219),                OPEN  )

! AUTO UNITS CONVERSION VARIABLES FOR ALL TO USE
!-----------------------------------------------
      EQUIVALENCE (PR(220), XXLNS  )
      EQUIVALENCE (PR(221), XXLNB1 )
      EQUIVALENCE (PR(222), XXFORS )
      EQUIVALENCE (PR(223), XXMOMS )
      EQUIVALENCE (PR(224), XXMS1  )
      EQUIVALENCE (PR(225), XXMS2  )
      EQUIVALENCE (PR(226), XXDEN  )


! REAL EQUIV ASSOCIATED WITH CONTROL OF EXPORT FORMAT 4
!------------------------------------------------------
! IF CAPTUR = 0.0 ONLY THE LAST RDB RECORD IS CAPTURED
!           = 1.0 USER SNAPSHOT TIMES + THE LAST RDB REC ARE CAPTURED
!           = 2.0 EVERY RDB RECORD OPPORTUNITY IS CAPTURED
      EQUIVALENCE (PR(227), CAPTUR )

! INHIBITS DUMP OF REF PT MISC DATA IF = -1.0
      EQUIVALENCE (PR(228), HOSTOF )


!---------------------------------------------------------
! REAL EQUIV ASSOCIATED WITH CONTROL OF ANIMATION FORMAT 10
!---------------------------------------------------------
! ANIMATION PROTOCOL FOR SPACE ANIMATOR VERSION 2
      DIMENSION U10PLANET_TYP(5)
      EQUIVALENCE (PR(229), U10_SCAL_DEFN )
      EQUIVALENCE (PR(230), U10_NO_RENDER )
      EQUIVALENCE (PR(231), U10COOR_FRAME )
      EQUIVALENCE (PR(232), U10ATT_FRAME  )
      EQUIVALENCE (PR(233), U10ATT_TYPE   )
      EQUIVALENCE (PR(234), U10PL_REF_LAT )
      EQUIVALENCE (PR(235), U10PL_REF_LON )
      EQUIVALENCE (PR(236), U10PL_REF_ALT )
      EQUIVALENCE (PR(237), U10PLANET_TYP(1) )


!     EQUIVALENCE (PR(242),                OPEN  )
!          "
!     EQUIVALENCE (PR(250),                OPEN  )
