! COMDECK COM_ROSS
! %Z%GTOSS %M% H.12 code v01.2
!              H.12 code v01.2 Added I/O chs for Late-Start Obj & Fin Solns
!--------------------------------------------------------------------------
!              H.10 code v01.1 Changed NRDB from 1000 -> 15000 to account
!                              for new limit on Max Bead-count
!-----------------------------------------------------------------------
!              H.1 code v01.01 (baseline for vG.1 delivery)
!**********************************************
!**********************************************
!
!   COMMON FOR RESULTS DATA BASE SUBSYSTEM
!
!**********************************************
!**********************************************
! THIS COMMON IS DEFINED TO FACILITATE EASY INCLUSION OF THE
! TOSS RESULTS DATA BASE INTO ANY SIMULATION INCORPORATING TOSS.
! INCLUDED IN THE RDB SYSTEM ARE EMPTY FILES (W/SUFFIXES G,J,K,F)
! WHICH ARE INTENDED FOR USE BY THE SYSTEM INCORPORATING TOSS,
! TO ALLOW IT TO HAVE RDB ARCHIVAL CAPABILITY (IF IT DOSENT ALREADY).
! IF YOU CHOOSE TO INCORPORATE THE TOSS RDB INTO YOUR SIMULATION
! YOU MUST INHIBIT THESE FILE'S PRESENCE OR USE THEM YOURSELF
! (SEE INHBIT FLAGS BELOW)

!$$$$$$$$$$$$$$$$$$$$$$$$$$$$$$$$$$$$$$$$$$$$$$$$$$
! DEFINE SYSTEM DEPENDENT FILE PATH NAME PARAMETERS
!--------------------------------------------------
! MAXIMUM FULLY-QUALIFIED-PATH LENGTH (CHARS)
!=@=@=@=@=@=@=@=@=@=@=@=@=@=@=@=@
!@MAC      PARAMETER ( MXPATH = 64   )
!=@=@=@=@=@=@=@=@=@=@=@=@=@=@=@=@
!@NOS      PARAMETER ( MXPATH = 128 )
      PARAMETER ( MXPATH = 64 )
!@VAX      PARAMETER ( MXPATH = 128 )
!@DOS      PARAMETER ( MXPATH = 128 )

! MAXIMUM SINGLE-FILE NAME LENGTH (CHARS)
!=@=@=@=@=@=@=@=@=@=@=@=@=@=@=@=@
!@MAC      PARAMETER ( MXFNAM =  7   )
!=@=@=@=@=@=@=@=@=@=@=@=@=@=@=@=@
!@NOS      PARAMETER ( MXFNAM =  7  )
      PARAMETER ( MXFNAM =  7  )
!@VAX      PARAMETER ( MXFNAM =  7  )
!@DOS      PARAMETER ( MXFNAM =  7  )
!$$$$$$$$$$$$$$$$$$$$$$$$$$$$$$$$$$$$$$$$$$$$$$$$$$


! EVALUATE MAXIMUM ROOT-PATH LENGTH (CHARS)
!------------------------------------------
      PARAMETER ( MXROOT = MXPATH - MXFNAM )

! STRINGS CONTAINING RAW-ROOT AND FULL-PATH-NAME TO INPUT FILE
!-------------------------------------------------------------
      COMMON /RDBNAM/  INROOT, INPATH
      CHARACTER *(MXROOT) INROOT
      CHARACTER *(MXPATH) INPATH

! STRINGS CONTAINING RAW-ROOT AND FULL-PATH-NAME TO RDB FILES
!------------------------------------------------------------
      COMMON /RDBNAM/  DBROOT, DBPATH
      CHARACTER *(MXROOT) DBROOT
      CHARACTER *(MXPATH) DBPATH

! STRINGS CONTAINING RAW-ROOT AND FULL-PATH-NAME TO ERROR FILES
!--------------------------------------------------------------
      COMMON /RDBNAM/  ERROOT, ERPATH
      CHARACTER *(MXROOT) ERROOT
      CHARACTER *(MXPATH) ERPATH

! STRINGS CONTAINING RAW-ROOT AND FULL-PATH-NAME TO QUICKLOOK FILES
!------------------------------------------------------------------
      COMMON /RDBNAM/  QKROOT, QKPATH
      CHARACTER *(MXROOT) QKROOT
      CHARACTER *(MXPATH) QKPATH

! STRINGS CONTAINING RAW-ROOT AND FULL-PATH-NAME TO AUXILIARY FILES
!------------------------------------------------------------------
      COMMON /RDBNAM/  AXROOT, AXPATH
      CHARACTER *(MXROOT) AXROOT
      CHARACTER *(MXPATH) AXPATH

!$$$$$$$$$$$$$$$$$$$$$$$$$$$$$$$$$$$$$$$$$$$$$$$$$$$$$$$$$$$$$$$$$$$$$$$
! THESE USED TO BE MACINTOSH SPECIFIC FILE PATH NAME PARAMETERS, BUT NOW
! SEEM TO APPLY TO MOST PLATFORMS, SO ARE NO LONGER PLATFORM SPECIFIC
!----------------------------------------------------------------------

! MAXIMUM FULLY-QUALIFIED-PATH LENGTH (CHARS).....LANGUAGE SYS F77 LIMIT
      PARAMETER ( MCPATH = 256 )

! MAXIMUM SINGLE-FILE NAME LENGTH (CHARS)...........MACINTOSH SYS LIMIT
      PARAMETER ( MCFNAM = 31 )

! MAXIMUM SINGLE-FILE NAME LENGTH (CHARS)
      PARAMETER ( MCROOT = MCPATH - MCFNAM )

! CHARACTER STRING CONTAINING PATH-NAME TO POST PROCESSOR OUTPUT FILES
      COMMON /RDBNAM/     MOPATH
      CHARACTER *(MCPATH) MOPATH
!$$$$$$$$$$$$$$$$$$$$$$$$$$$$$$$$$$$$$$$$$$$$$$$$$$$$$$$$$$$$$$$$$$$$$$$



!----------------------------------
! COMMON FOR RDB INTEGER  VARIABLES
!----------------------------------
! STATE SIZE OF COMMON ARRAY
      PARAMETER ( NIRDB = 80 )
      COMMON /RDBCOI/ IRDB(NIRDB)
      INTEGER IRDB

! SCRATCH USED TO WRITE RESULTS DATA BASE RECORDS AND LATE START FILES
!---------------------------------------------------------------------
! STATE SIZE OF COMMON ARRAY AND DEFINE REAL DATA SIZE FOR RDB ARCHIVES
! NOTE: THIS PARAMETER IS SET TO A VALUE THAT IS USUALLY ADEQUATE, BUT
!       IF OTHER PARAMETERS WITHIN THE TOSS COMPLEX, SUCH AS MAXBBS, ARE
!       INCREASED SIGNIFICANTLY, THEN IT COULD LEAD TO THIS BEING OF
!       INADEQUATE SIZE)
!------------------------
      PARAMETER ( NRDB = 15000 )
      REAL *4 RDBOUT
      COMMON /RDBCOR/ RDBOUT(NRDB)


! STATE RECORD SIZE OF LATE START FILES
      PARAMETER ( NRECS = 100 )
      COMMON /RDBLTR/ DBLOUT(NRECS)
      COMMON /RDBLTI/ INTOUT(NRECS)
      COMMON /RDBLTL/ LOGOUT(NRECS)
      LOGICAL LOGOUT


! RESULTS DATABASE FILE NAMES (FILES WITH SUFFIX CHARACTERS: G,J,K,F
! ARE NOT USED BY TOSS, HENCE MAY BE USED AS A DATABASE FILE BY ANY
! SYSTEM INCORPORATING TOSS - NOTE: THE FLEXIBLE BOOM MODULE USES
! WILD CARD FILE K, HENCE YOU WOULD NOT WANT TO USE THAT ONE IF YOU
! INCORPORATE THE TOSS FLEX BOOM MODULE)
      COMMON /RDBNAM/ RDBFNG, RDBFNJ, RDBFNK, RDBFNF
      COMMON /RDBNAM/ RDBFNI, RDBFNA, RDBFNT, RDBFNB, RDBFNO

      CHARACTER *7 RDBFNG
      CHARACTER *7 RDBFNJ
      CHARACTER *7 RDBFNK
      CHARACTER *7 RDBFNF

      CHARACTER *7 RDBFNI
      CHARACTER *7 RDBFNA
      CHARACTER *7 RDBFNT
      CHARACTER *7 RDBFNB
      CHARACTER *7 RDBFNO

! RDB NAME SYNTHESIS CHARACTER STRINGS
      COMMON /RDBNAM/ RDBNAM, RDBNUM
      CHARACTER *4 RDBNAM
      CHARACTER *2 RDBNUM

! LATE START SNAP SHOT FILE NAME
      COMMON /RDBNAM/ SNAPNM
      CHARACTER *7 SNAPNM


! STORAGE FOR DATE AND TIME
      COMMON /RDBTXT/ CDATEC, CTIMEC
      CHARACTER *10   CDATEC, CTIMEC

! NOTE: RTOSS STANDARD DATE/TIME VARIABLES ARE DEFINED AS:
!--------------------------------------------------------
!               |<-------- VARIABLE CDATEC ------->|
!  POSITION ->   1  2   3   4  5   6   7  8   9  10
!               ------------------------------------
!  CONTENTS ->   M  M   /   D  D   /   1  9   Y   Y
!
!
!               |<---- VARIABLE CTIMEC ----->|
!  POSITION ->   1........................10
!               ------------------------------
!  CONTENTS ->   UN-STANDARDIZED TIME FORMAT (EXCEPT MUST BE 10 CHARS)



!-----------------------------------------
! INTEGER EQUIVALENCES OF A GENERAL NATURE
!-----------------------------------------
      EQUIVALENCE (IRDB(1), NRBYTE)
      EQUIVALENCE (IRDB(2), NOPEN )

! RDB FILE UNIT NUMBERS
      EQUIVALENCE (IRDB( 3), IOUXXG)
      EQUIVALENCE (IRDB( 4), IOUXXJ)
      EQUIVALENCE (IRDB( 5), IOUXXK)
      EQUIVALENCE (IRDB( 6), IOUXXF)

      EQUIVALENCE (IRDB( 7), IOUXXO)
      EQUIVALENCE (IRDB( 8), IOUXXI)
      EQUIVALENCE (IRDB( 9), IOUXXA)
      EQUIVALENCE (IRDB(10), IOUXXT)
      EQUIVALENCE (IRDB(11), IOUXXB)


! RDB FILE TIME-SNAP-SHOT INHIBITOR FLAGS (-1=INHIBIT SNAPSHOT, 0=WRITE)
      EQUIVALENCE (IRDB(12), MISSG)
      EQUIVALENCE (IRDB(13), MISSJ)
      EQUIVALENCE (IRDB(14), MISSK)
      EQUIVALENCE (IRDB(15), MISSF)

      EQUIVALENCE (IRDB(16), MISSA)
      EQUIVALENCE (IRDB(17), MISST)
      EQUIVALENCE (IRDB(18), MISSB)

! LATE-START SNAPSHOT I/O CHANNEL FOR TOSS OBJECTS
! NOTE: THIS I/O HAVE NOT BEEN USED YET, SO THIS IS HISTORICAL CODE
!       INSTEAD, IOUXXO HAS BEEN PRESED INTO SERVICE FOR THIS NEED
      EQUIVALENCE (IRDB(19), IOUXX_OB)

! RDB AUX DATA INCLUSION FLAGS ( =1 MEANS AUX DATA PRESENT, 0=NOT)
      EQUIVALENCE (IRDB(20), NLAXG)
      EQUIVALENCE (IRDB(21), NLAXJ)
      EQUIVALENCE (IRDB(22), NLAXK)
      EQUIVALENCE (IRDB(23), NLAXF)

      EQUIVALENCE (IRDB(24), NLAXA)
      EQUIVALENCE (IRDB(25), NLAXT)
      EQUIVALENCE (IRDB(26), NLAXB)

! UNFORMATTED RDB FILE RECORD COUNTERS
      EQUIVALENCE (IRDB(27), NEXTG )
      EQUIVALENCE (IRDB(28), NEXTJ )
      EQUIVALENCE (IRDB(29), NEXTK )
      EQUIVALENCE (IRDB(30), NEXTF )

      EQUIVALENCE (IRDB(31), NEXTA )
      EQUIVALENCE (IRDB(32), NEXTT )
      EQUIVALENCE (IRDB(33), NEXTB )

! BASIC DATA ARRAY REAL VARIABLE UTILIZATION COUNTS
      EQUIVALENCE (IRDB(34), NBASG )
      EQUIVALENCE (IRDB(35), NBASJ )
      EQUIVALENCE (IRDB(36), NBASK )
      EQUIVALENCE (IRDB(37), NBASF )

      EQUIVALENCE (IRDB(38), NBASA )
      EQUIVALENCE (IRDB(39), NBAST )
      EQUIVALENCE (IRDB(40), NBASB )

! AUX DATA ARRAY REAL VARIABLE UTILIZATION INCREMENT
      EQUIVALENCE (IRDB(41), NINCXG)
      EQUIVALENCE (IRDB(42), NINCXJ)
      EQUIVALENCE (IRDB(43), NINCXK)
      EQUIVALENCE (IRDB(44), NINCXF)

      EQUIVALENCE (IRDB(45), NINCXA)
      EQUIVALENCE (IRDB(46), NINCXT)
      EQUIVALENCE (IRDB(47), NINCXB)

! CALCULATED RDB RECORD SIZE REQUIRMENTS BASED ON BASIC/AUX DATA
      EQUIVALENCE (IRDB(48), NRECG )
      EQUIVALENCE (IRDB(49), NRECJ )
      EQUIVALENCE (IRDB(50), NRECK )
      EQUIVALENCE (IRDB(51), NRECF )

      EQUIVALENCE (IRDB(52), NRECA )
      EQUIVALENCE (IRDB(53), NRECT )
      EQUIVALENCE (IRDB(54), NRECB )

! ACTUAL OPEN SIZE ARGUMENTS IN RDB OPEN STATMENTS (NUMBER OF REALS)
      EQUIVALENCE (IRDB(55), NOPSZG)
      EQUIVALENCE (IRDB(56), NOPSZJ)
      EQUIVALENCE (IRDB(57), NOPSZK)
      EQUIVALENCE (IRDB(58), NOPSZF)

      EQUIVALENCE (IRDB(59), NOPSZA)
      EQUIVALENCE (IRDB(60), NOPSZT)
      EQUIVALENCE (IRDB(61), NOPSZB)

! CURRENT RDB SEQUENCE NUMBER
      EQUIVALENCE (IRDB(62), NUMRDB)

! FLAG INDICATING IF A NEW RDB NAME HAS BEEN ENCOUNTERED
      EQUIVALENCE (IRDB(63), NAMFLG)

! LATE-START SNAPSHOT FILE NUMBER SEQUENCER
      EQUIVALENCE (IRDB(64), JSNAP )

! LATE-START SNAPSHOT I/O CHANNEL FOR FIITE SOLUTIONS
! NOTE: THIS I/O HAVE NOT BEEN USED YET, SO THIS IS HISTORICAL CODE
!       INSTEAD, IOUXXO HAS BEEN PRESED INTO SERVICE FOR THIS NEED
      EQUIVALENCE (IRDB(65), IOUXX_FS)

! LAST RECORD NUMBER WRITTEN TO FILE (USED IN RDB DATA EXTRACTION ONLY)
      EQUIVALENCE (IRDB(66), LASRCG  )
      EQUIVALENCE (IRDB(67), LASRCJ  )
      EQUIVALENCE (IRDB(68), LASRCK  )
      EQUIVALENCE (IRDB(69), LASRCF  )

      EQUIVALENCE (IRDB(70), LASRCA  )
      EQUIVALENCE (IRDB(71), LASRCT  )
      EQUIVALENCE (IRDB(72), LASRCB  )

! FACILITY FORM-FEED TYPE DESIGNATOR
      EQUIVALENCE (IRDB(73), LRFAC  )


!--------------------------------------
! I/O UNIT NUMBERS FOR RTOSS OPERATIONS
!--------------------------------------
! UNIT NUMBER FOR OUTPUT ERROR MESSAGES WRITTEN BY RTOSS
      EQUIVALENCE (IRDB(74), IRBERR  )

! UNIT NUMBER FOR CRT OUTPUT WRITTEN BY RTOSS
      EQUIVALENCE (IRDB(75), IRBCRO  )

! UNIT NUMBER FOR CRT INPUT READ BY RTOSS
      EQUIVALENCE (IRDB(76), IRBCRI  )


! INTERNAL PARAMETER VALUES EXISTING WHEN RDB WAS CREATED
!--------------------------------------------------------
! (THESE ARE USED FOR RDB RETRO-COMPATIBILITY TESTING)
      EQUIVALENCE (IRDB(77), NRPSXX  )
      EQUIVALENCE (IRDB(78), NAPSXX  )
      EQUIVALENCE (IRDB(79), NATTXX  )
      EQUIVALENCE (IRDB(80), NOBJXX  )


! REMAINDER OF INTEGER COMMON
!     EQUIVALENCE (IRDB(81),   NEXT AVAILABLE, FULL )
!          "
!     EQUIVALENCE (IRDB(80),   LAST ELEMENT         )
