! COMDECK COM_COSS
! %Z%GTOSS %M% H.10 code v01.02
!              H.10 code v01.02 Added Pressure & Area convertors.
!                               Added Statute mile convertor.
!                               Increased OUTP array from 1000 to 4000.
!                               Added "window specific "length specifier".
!                               Added data flags for 11 BB-Seg default spec.
!---------------------------------------------------------------------------
!              H.1 code v01.01  (baseline for vG.1 delivery)
!**********************************************
!**********************************************
!
!  GENERAL COMMON FOR CTOSS RESULTS DATA BASE
!        POST-PROCESSING DISPLAY SYSTEM
!
!**********************************************
!**********************************************

! THIS IS AN 'INCLUDE' FILE CONTAINING COMMON FOR
! DISPLAY POST-PROCESSING

! THIS COMMON IS BEST DESCRIBED AND UNDERSTOOD IN
! VIEW OF THE FOLLOWING OBSERVATIONS:

!   1. IT BUILDS UPON ALL THE OTHER OFFICIAL GTOSS
!      AND TOSS COMMON INCLUDE FILES AS SUPPLEMENTS

!   2. BY INCORPORATING THESE OTHER INCLUDE FILES,
!      STORAGE ALLOCATION REQUIRED FOR GTOSS/TOSS
!      DATA RECONSTRUCTION, ARE AUTOMATICALLY AND
!      CONSISTENTLY MAINTAINED.

!   3. BY THIS MECHANISM, THE POST PROCESSING
!      DISPLAY ROUTINES CAN INVOKE THE ACTUAL WORKING
!      ARRAY NAME EQUIVALENCE INCLUDE FILES FOR USE
!      IN STORING RESULTS OF THE RDB DATA EXTRACTIONS.

!   4. FUNCTIONING OF THE DISPLAY ROUTINES DRAW
!      HEAVILY UPON VARIOUS INTEGER COMMON ALLOCATIONS
!      EXISTING IN GTOSS FOR SPECIFICATION OF RESULTS
!      DATA BASE FILE MANIPULATION VARIABLES. THIS SHOULD
!      BE SELF MAINTAINING AND CONSISTENT SINCE BOTH
!      PROGRAMS REFER TO THE SAME DATA BASE FILES.

! COMMON FOR GENERAL DATA VARIABLES
!----------------------------------
! STATE SIZE OF THIS COMMON ARRAY
      PARAMETER (       NPR = 250 )
      COMMON /PTOSR/ PR(NPR)

! COMMON FOR INTEGER  VARIABLES
!--------------------------------
! STATE SIZE OF THIS COMMON ARRAY
      PARAMETER (        NING = 120 )
      COMMON /PTOSI/ ING(NING)
      INTEGER ING

! COMMON FOR LOGICAL VARIABLES
!--------------------------------
! STATE SIZE OF THIS COMMON ARRAY
      PARAMETER (         NLOGI = 15 )
      COMMON /PTOSL/ LOGI(NLOGI)
      LOGICAL LOGI

! I/O WRITE ARRAY FOR COLUMN DELIMITED OUTPUT
!--------------------------------------------
! STATE SIZE OF THIS COMMON ARRAY AND DEFINE REAL DATA SIZE FOR OUTPUT
      PARAMETER (         NOUTP = 4000 )
      REAL *4 OUTP
      COMMON /PTOSO/ OUTP(NOUTP)

! COMMON FOR CTOSS TEXT DATA
      COMMON  /PTEXT/ DTEXT(72,3), FF
      CHARACTER DTEXT, FF

! COMMON FOR CTOSS IDENTIFICATION STRING
      COMMON  /PTEXT/ CTSID
      CHARACTER *35 CTSID

! CURRENT RDB NAME COMPONENTS AS ENTERED IN UTOSS INPUT STREAM
      COMMON  /PTEXT/  PDBNAM, PDBNUM
      CHARACTER *4 PDBNAM
      CHARACTER *2 PDBNUM

! COMMON FOR WINDOW DEFINITION (HDR START, COL DEFINITOR, ROW DEFINITOR)
      COMMON  /PTEXT/  AST, HT, CR
      CHARACTER AST, HT, CR

! COMMON FOR TEXT DEFINING FILE OPEN NAMES OF COL-DELIMITED OUTPUT FILES
      COMMON  /PTEXT/  CKFNAM
      CHARACTER *29 CKFNAM

! COMMON FOR HEADER TEXT STRINGS
      COMMON  /PTEXT/  ECOLHD(NOUTP), MCOLHD(NOUTP)
      CHARACTER *15 ECOLHD, MCOLHD

! COMMON FOR HEADER TEXT INTERNAL FILES FOR SCRATCH USE
      COMMON  /PTEXT/  IFCOL2, IFCOL3, IFCOL4, IFCOL5, IFCOL6, IFCOL7
      COMMON  /PTEXT/  IFCOL8, IFCOL9, IFCOL10, IFCOL11
      COMMON  /PTEXT/  COLIF
      CHARACTER  *2 IFCOL2
      CHARACTER  *3 IFCOL3
      CHARACTER  *4 IFCOL4
      CHARACTER  *5 IFCOL5
      CHARACTER  *6 IFCOL6
      CHARACTER  *7 IFCOL7
      CHARACTER  *8 IFCOL8
      CHARACTER  *9 IFCOL9
      CHARACTER *10 IFCOL10
      CHARACTER *11 IFCOL11
      CHARACTER *15 COLIF

! COMMON FOR HEADER TEXT INTERNAL FILES FOR FORMAT PARAMETER ID
      COMMON  /PTEXT/ FMNID3, FMUID4, TIMID6, OBJID4 ,EULID3, LIBID3
      COMMON  /PTEXT/ FSNID4, TTNID5, BBNID4, SGNID4, APNID3, TAG4
      CHARACTER *3 EULID3, LIBID3, FMNID3, APNID3
      CHARACTER *4 OBJID4, FSNID4, BBNID4, SGNID4, FMUID4, TAG4
      CHARACTER *5 TTNID5
      CHARACTER *6 TIMID6


!-----------------------------------------
! LOGICAL EQUIVALENCES OF A GENERAL NATURE
!-----------------------------------------
      EQUIVALENCE (LOGI(1),PROCE), (LOGI(2),NOEN), (LOGI(3),STAR)

      LOGICAL PROCE, NOEN, STAR


!--------------------------------------------
! POST PROCESSOR GENERIC INTEGER EQUIVALENCES
!--------------------------------------------
! INTEGER EQUIVALENCES OF A GENERAL NATURE
      EQUIVALENCE (ING(1), NSKI   )
      EQUIVALENCE (ING(2), NLIN   )
      EQUIVALENCE (ING(3), NCOUN  )
      EQUIVALENCE (ING(4), NCR    )
      EQUIVALENCE (ING(5), NBR    )
      EQUIVALENCE (ING(6), LASITM )

! DEFINE GENERAL I/O UNIT-SPECIFIER VARIABLES FOR UTOSS
      EQUIVALENCE (ING(7),  IUIN    )
      EQUIVALENCE (ING(8),  IUOUT   )
      EQUIVALENCE (ING(9),  IUCRT   )
      EQUIVALENCE (ING(10), IUERR   )

! DEFINE I/O UNIT-SPECIFIER FOR MULTI-EXPORT FILES
      DIMENSION            IOUP(7)
      EQUIVALENCE (ING(11),IOUP(1)  )


!     EQUIVALENCE (ING(18),             UNASSIGNED )


! BATCH MODE/INTERACTIVE MODE SYSTEM DEFINITOR
      EQUIVALENCE (ING(19), LBATCC )

! FLAG INDICATING NEW RDB NAME ENTRY VIA CTOSS INPUT
      EQUIVALENCE (ING(20), NPMFLG )

! INTEGER EQUIVALENCES ASSOCIATED WITH WINDOW GENERATION
      EQUIVALENCE (ING(21),LIMPDS  )
      EQUIVALENCE (ING(22),NOBJZ   )
      EQUIVALENCE (ING(23),NCHUZ   )
      EQUIVALENCE (ING(24),NFTSHO  )
!     EQUIVALENCE (ING(25),       OPEN )
      EQUIVALENCE (ING(26),NTTSHO  )
      EQUIVALENCE (ING(27),NUNIT   )
      EQUIVALENCE (ING(28),NTPEUL  )
      EQUIVALENCE (ING(29),NTPLIB  )

! FLAG INDICATING NO ENTRY OF BEADOR SEG SEQUENCE PROFILE
      EQUIVALENCE (ING(30),LNOBBS  )
      EQUIVALENCE (ING(31),LNOSEG  )

!     EQUIVALENCE (ING(32),       OPEN )
!          "
!     EQUIVALENCE (ING(34),       OPEN )


!------------------------------------------------------
! INTEGER EQUIV ASSOCIATED WITH COLUMN DELIMITED OUTPUT
!------------------------------------------------------
! FLAGS INDICATING IF A SHAPE SNAPSHOT HAS BEEN TAKEN
      DIMENSION             NSNAP(39)
      EQUIVALENCE (ING(35), NSNAP( 1) )

! I/O UNIT NUMBERS FOR TETHER SHAPE FACILITY SCRATCH FILES
      DIMENSION             IOUSHP(7)
      EQUIVALENCE (ING(74), IOUSHP(1) )

! TEMPORARY UNIT# HOLDER FOR TETHER SHAPE FACILITY SCRATCH FILE WRITES
      EQUIVALENCE (ING(81), IUSHAP )

! TETHER-SHAPE FACILITY SCRATCH FILE RECORD COUNTERS
      DIMENSION             NEXSP(7)
      EQUIVALENCE (ING(82), NEXSP(1) )

! TEMPORARY RECORD COUNT HOLDER FOR TETHER SHAPE FACILITY SCRATCH FILE
      EQUIVALENCE (ING(89), NEXSHP )

! I/O UNIT# SPECIFIER FOR TETHER SHAPE UTILITY SCRATCH FILE
      EQUIVALENCE (ING(90), ISUTIL )

! TETHER SHAPE EVENT ENUNCIATOR
      EQUIVALENCE (ING(91), NSHPEV )

!     EQUIVALENCE (ING(92),           OPEN )
!     EQUIVALENCE (ING(93),           OPEN )

! MAIN-FRAME 7 CHAR FILE NAME WINDOW GENERATION OPTION SPECIFIER
      EQUIVALENCE (ING(94), NAME7  )

! FILE-NAME ID RUN-COUNTER FOR MAIN-FRAME WINDOW GENERATION OPTION
      EQUIVALENCE (ING(95), JRUNS  )

! TETHER SHAPE FACILITY FORMAT NUMBER BOUNDERIES (CTOSS EXCLUSIVE)
      EQUIVALENCE (ING(96), LSC1 )
      EQUIVALENCE (ING(97), LSC2 )

! TETHER SHAPE FACILITY FORMAT NUMBER BOUNDERIES (USER EXCLUSIVE)
      EQUIVALENCE (ING(98), LSU1 )
      EQUIVALENCE (ING(99), LSU2 )

! VARIABLE USED BY FORMATS TO INFORM CTOSS EXEC OF NUMBER OF COLUMNS
      EQUIVALENCE (ING(100), NUMCOL )

! DEFINITION OF NUMBER OF COLUMNS USED BY EACH 7 POSSIBLE OUTPUT FILES
      DIMENSION NCOLO(7)
      EQUIVALENCE (ING(101), NCOLO(1) )

! DEFINITION OF UNITS TO BE USED FOR EACH OUTPUT FILE
      DIMENSION NUNITS(7)
      EQUIVALENCE (ING(108), NUNITS(1) )


!     EQUIVALENCE (ING(115),       OPEN )
!          "
!     EQUIVALENCE (ING(120),       OPEN )


!-----------------------------------------
! POST PROCESSOR GENERIC REAL EQUIVALENCES
!-----------------------------------------
! CTOSS STANDARD TIME (EQUIVALENT TO GTOSS TIME)
      EQUIVALENCE (PR(1),DTIME )

! REAL EQUIVALENCES ASSOCIATED W/BASIC CONTROL INPUT FOR CTOSS
      EQUIVALENCE (PR(2),TMX   )

! SKIP/START/DURATION FOR ALL DISPLAYS - 1ST PERIOD
      EQUIVALENCE (PR(3),TSKI1 )
      EQUIVALENCE (PR(4),TSAR1 )
      EQUIVALENCE (PR(5),TDU1  )
! SKIP/START/DURATION FOR ALL DISPLAYS - 2ND PERIOD
      EQUIVALENCE (PR(6),TSKI2 )
      EQUIVALENCE (PR(7),TSAR2 )
      EQUIVALENCE (PR(8),TDU2  )
! SKIP/START/DURATION FOR ALL DISPLAYS - 3RD PERIOD
      EQUIVALENCE (PR(9), TSKI3 )
      EQUIVALENCE (PR(10),TSAR3 )
      EQUIVALENCE (PR(11),TDU3  )
! SKIP/START/DURATION FOR ALL DISPLAYS - 4TH PERIOD
      EQUIVALENCE (PR(12),TSKI4 )
      EQUIVALENCE (PR(13),TSAR4 )
      EQUIVALENCE (PR(14),TDU4  )

!     EQUIVALENCE (PR(15),            UNASSIGNED   )


! FLAG TO CONTROL BATCH MODE AND CRT OUTPUT OF CTOSS PROGRESS
      EQUIVALENCE (PR(16), BATCON   )

! FLAG TO CONTROL INVOKE SPECIAL TAG HEADER IN OUTPUT COLUMNS
      EQUIVALENCE (PR(17), TAGFLG   )

! FLAG TO CONTROL EMBEDDED FILE NAME WRITE TO OUTPUT FILE
      EQUIVALENCE (PR(18), DOLLAR   )

!     EQUIVALENCE (PR(19),            UNASSIGNED   )

! FLAG TO CONTROL OUTPUT OF '*' TO ROW 1 OF OUTPUT (-1.0 INHIBITS)
      EQUIVALENCE (PR(20), PNOAST   )

! FLAG TO CONTROL TYPE OF COLUMN DELIMITER TO USE
      EQUIVALENCE (PR(21), PDELIM   )

! GLOBAL PREEMPTIVE EULER ANGLE DEFINITOR
      EQUIVALENCE (PR(22), GTPEUL   )

! GLOBAL PREEMPTIVE LIBRATION ANGLE DEFINITOR
      EQUIVALENCE (PR(23), GTPLIB   )

! GLOBAL PREEMPTIVE UNITS DEFINITOR
      EQUIVALENCE (PR(24), GLUNIT   )

! REAL EQUIV ASSOCIATED WITH INPUT CONTROL OF MULTI-WINDOW GENERATION
! (NOTE THAT MOST OF THESE EQUIV CAN BE LARGER THAN SHOWN)
      DIMENSION PUNIT(7),  PCHUZ(7),  POBJZ(7),   PTTSHO(7),   &
     &          PFTSHO(7), PTOBJ(10), PTSHOW(15), PNBSHO(11),   &
     &          PNSEGO(11),PTFMT9(7), PRPSHO(10), PLENSHO(7)

      EQUIVALENCE (PR(25),PUNIT(1)  )

      EQUIVALENCE (PR(35),PCHUZ(1)  )

      EQUIVALENCE (PR(45),POBJZ(1)  )

      EQUIVALENCE (PR(55),PFTSHO(1) )

      EQUIVALENCE (PR(65),PRPSHO(1) )

      EQUIVALENCE (PR(75),PTOBJ(1)  )

      EQUIVALENCE (PR(85),PTSHOW(1) )

      EQUIVALENCE (PR(100),PATTA    )
      EQUIVALENCE (PR(101),PATTB    )

!     EQUIVALENCE (PR(102),            UNASSIGNED   )
!     EQUIVALENCE (PR(103),            UNASSIGNED   )
!     EQUIVALENCE (PR(104),            UNASSIGNED   )

      EQUIVALENCE (PR(105),PNBSHO(1) )

      EQUIVALENCE (PR(116),PNSEGO(1) )

      EQUIVALENCE (PR(127),PTTSHO(1) )

      EQUIVALENCE (PR(134),PTFMT9(1) )


!---------------------------------------------------------
! REAL EQUIV ASSOCIATED WITH INPUT CONTROL OF TETHER SHAPE
! SNAPSHOT FEATURE OF COLUMN DELIMITED OUTPUT GENERATION
!---------------------------------------------------------
! (ALLOWS UP TO 39 SNAPSHOTS AT ARBITRARY SPECIFIED TIMES)
      DIMENSION            TSNAP(39)

      EQUIVALENCE (PR(141),TSNAP( 1)  )
!          "                 "
!     EQUIVALENCE (PR(179),TSNAP(39)  )


      EQUIVALENCE (PR(180),PLENSHO(1) )
      EQUIVALENCE (PR(187),PLENFRC    )


!     EQUIVALENCE (PR(188),            UNASSIGNED   )
!     EQUIVALENCE (PR(189),            UNASSIGNED   )


!---------------------------------------------------------
!---------------------------------------------------------
! PARAMETERS 190 TO 200 ARE RESERVED AS OUTSIDE USER INPUT
! AND WILL NOT BE EMPLOYED BY ANY STANDARD CTOSS FUNCTIONS
!---------------------------------------------------------
!     EQUIVALENCE (PR(190),  RESERVED FOR OUTSIDERS USE  )
!         "            "              "
!     EQUIVALENCE (PR(200),  RESERVED FOR OUTSIDERS USE  )
!---------------------------------------------------------
!---------------------------------------------------------


! UNITS CONVERSION FACTORS FOR ALL TO USE
!----------------------------------------
      EQUIVALENCE (PR(201), XFTXMR )
      EQUIVALENCE (PR(202), XMRXFT )
      EQUIVALENCE (PR(203), XLBXNT )
      EQUIVALENCE (PR(204), XNTXLB )
      EQUIVALENCE (PR(205), XDGXRD )
      EQUIVALENCE (PR(206), XRDXDG )
      EQUIVALENCE (PR(207), XFTXNM )
      EQUIVALENCE (PR(208), XNMXFT )
      EQUIVALENCE (PR(209), XPMXKG )
      EQUIVALENCE (PR(210), XSLXKG )
      EQUIVALENCE (PR(211), XMOMTM )
      EQUIVALENCE (PR(212), XMOMTE )
      EQUIVALENCE (PR(213), XINXCM )
      EQUIVALENCE (PR(214), XCMXIN )


! REAL EQUIV ASSOCIATED WITH INPUT CONTROL OF MULTI-WINDOW GENERATION
! (NOTE THAT MOST OF THESE EQUIV CAN BE LARGER THAN SHOWN)
      DIMENSION PTPEUL(7), PTPLIB(7)

      EQUIVALENCE (PR(215), PTPEUL(1)  )
      EQUIVALENCE (PR(225), PTPLIB(1)  )


! AUTO UNITS CONVERSION VARIABLES FOR ALL TO USE
!-----------------------------------------------
      EQUIVALENCE (PR(235), XXLNS  )
      EQUIVALENCE (PR(236), XXLNB1 )
      EQUIVALENCE (PR(237), XXFORS )
      EQUIVALENCE (PR(238), XXMOMS )
      EQUIVALENCE (PR(239), XXMS1  )
      EQUIVALENCE (PR(240), XXMS2  )
      EQUIVALENCE (PR(241), XXDEN  )
      EQUIVALENCE (PR(242), XXLNB2 )
      EQUIVALENCE (PR(243), XXPRES )
      EQUIVALENCE (PR(244), XXAREA )
      EQUIVALENCE (PR(245), XXLNB3 )


!     EQUIVALENCE (PR(246),              UNASSIGNED   )
!          "                                  "
!     EQUIVALENCE (PR(250),            LAST OF COMMON )
