! COMDECK FINITE_DATA_STRUCTURE
! %Z%GTOSS %M% H.12 code v02.00
!              H.12 code v02.00 Increased No. of Finite solns from 9 to 29
!-------------------------------------------------------------------------
!              H.11 code v01.00  Baseline code for F90 conversion
!*********************************************************
!*********************************************************
!
! THIS MODULE, WHEN "USED" IN ANY GTOSS SUBPROGRAM THAT
! REFERENCES VARIABLES WITHIN A FINITE TETHER SOLUTION,
! WILL PROVIDE THE OFFICIAL USER-DEFINED DATA STRUCTURE
! FOR A TOSS FINITE SOLUTION
!
!*********************************************************
!*********************************************************
      MODULE FINITE_DATA_STRUCTURE

! FOR NOW, NO NOT ENFORCE STRONG-TYPING IN ORDER TO ALLOW
! COMPATIBLE INCLUSION OF EXISTNG TOSS ARRAY DEFNS
!         IMPLICIT NONE


! SPECIFY MAX NUMBER OF BEADS FOR ANY BEAD MODEL SOLN
!----------------------------------------------------
         INTEGER MAXBBS
         PARAMETER ( MAXBBS =  500 )

! SPECIFY CURRENT LIMIT ON NUMBER OF FINITE SOLUTIONS
! THIS SHOULD BE CONSISTENT WITH THE NUMBER OF FINITE
! SOLN ARRAYS ACTUALLY EXPANDED (BELOW) FOR OPERATION
!----------------------------------------------------
         INTEGER NFSOLN
         PARAMETER ( NFSOLN =   31 )

! CALCULATE SOME RELATED PARAMETERS FOR ALL TO USE
!-------------------------------------------------
         INTEGER MAX3BB, MAXSEG
         PARAMETER ( MAX3BB = 3 * MAXBBS     )
         PARAMETER ( MAXSEG =     MAXBBS + 1 )

! DEFINE A SPECIAL PARAMETER SO THAT POST PROCESSOR CHAINED-TETHER
! FORMAT ROUTINES CAN BE SELF-MAINTAINING WR/T MAXBBS PARAMETER
! NOTE: +4 = UP TO 4 TOSS OBJECT STATES IN A CHAIN
!       +2 = POSSIBLE END-POINT STATES (IE. BOUNDARY POINTS)
!       +2 = TO DEPICT TENS DISCONTINUITY ACROSS 2 INNER OBJECTS
!       +1 = POSSIBLE NULL ELEM FOR USE IN CTOSS SHAPE FMTS
!----------------------------------------------------------
         INTEGER NCOSSEG
         PARAMETER (NCOSSEG = 3*(MAXBBS+1) +4 +2 +2 +1)



!**********************************************************
!**********************************************************
! NOW DEFINE THE DATA THAT SPECIFIES A TOSS FINITE SOLUTION
!**********************************************************
!**********************************************************
         TYPE FINITE_SOLN_STATE

!============================================================
!============================================================
!
! SPECIAL NOTE: THIS DATA STRUCTURE DEFINES ONLY THE "DYNAMIC
! ------- ----  VARIABLES" FOR A FINITE SOLN. MANY OF THESE
!               WILL HAVE BEEN INITIALIZED VIA THE FINITE
!               SOLN INITIALIZATION PROGRAMS AND OPTIONS, ALL
!               ORIGINALTING FROM DATA THAT HAS BEEN READ-IN
!               INDEPENDENTLY OF THIS DATA STRUCTURE.
!
!============================================================
!============================================================

!----------------------------------------------------------------
! INTEGER VARIABLES SPECIFIC TO EACH FINITE TETHER SOLUTION STATE
!----------------------------------------------------------------
      INTEGER :: iNFTIME

! SPECIFIES REF END FOR HST TENSION SOLN (X=0, Y=1)
      INTEGER :: iNXYHST

! FINITE MODEL TYPE SPECIFIER [BEAD TYPE(S)]
      INTEGER :: iNFTYP

! NUMBER OF BEADS IN BEAD MODEL
      INTEGER :: iNBEAD
      INTEGER :: iN3BEAD

! ONE SHOT LOGIC FOR SPECIAL HST FINITE SOLN INITIALIZATION
      INTEGER :: iJONCE

! SUNLIGHT DAY-NIGHT AND TERMINATOR INDICATOR FLAGS
      INTEGER :: iLITNIT
      INTEGER :: iLITERM

! REGION-LENGTH REFERENCE FOR RECKONING NON-UNIFORM PROPERTIES
      INTEGER :: iNNUREF

! GENERALIZED COORDINATE INITIALIZATION OPTION
      INTEGER :: iLFIC

! GENRALIZED FORCE EVALUATION OPTION SPECIFIER
      INTEGER :: iLOPGRV
      INTEGER :: iLOPARO
      INTEGER :: iLOPELC

! HST SEG LENGTH ERROR FLAG (0 = OK, 1 = FAILED)
      INTEGER :: iJHSTER

! TOSS TETHER BREAK INDICATOR WHICH GETS ASSOCIATED W/ FINIT SOLN
      INTEGER :: iNBRKTP

! BEAD SEGMENT BREAK INDICATOR FOR TOSS TETHER ASSOCIATED BREAK
      INTEGER :: iNSTBRK

! FOR BEAD MODEL, SEGMENT NUMBER OF 1ST AND 2ND POSSIBLE BREAKS
      INTEGER :: iNS1BRK
      INTEGER :: iNS2BRK

! FOR BEAD MODEL, FLAGS TO INDICATE IF 1ST OR 2ND BREAK HAS OCCURRED
      INTEGER :: iNF1BRK
      INTEGER :: iNF2BRK

! FOR BEAD MODEL, NUMBER OF NON-UNIFORM-PROPERTY REGIONS
      INTEGER :: iNNUPR

! BEAD MODEL SKIP ROPE INITIALIZATION OPTION
      INTEGER :: iLSIC
      INTEGER :: iLSMODE

! FOR BEAD MODEL, TYPE OF NON-UNIFORM-PROPERTY INTERPOLATION
      INTEGER :: iNNUITD
      INTEGER :: iNNUITE
      INTEGER :: iNNUITA


!-------------------------------------
! MISCELLEANEOUS PROPERTIES AND STATES
!-------------------------------------
! INTEGRATION INTERVAL & LAPSED TIME OF FINITE TETHER SOLN
! (SEE: TIMSTG  BELOW FOR MORE TIME RELATED VARIABLES)
      REAL*8 :: rDELTIS
      REAL*8 :: rTISTIM

! NOMINAL INSTANTANEOUS DEPLOYED (UNDEFORMED) TETHER LENGTH
      REAL*8 :: rEL
      REAL*8 :: rELD
      REAL*8 :: rELDD

! UNDEFORMED TETHER DENSITY, X-SECTIONAL AREA, YOUNGS MODULUS
! (THESE ARE BASIC CONSTANTS FOR A UNIFORM TETHER; HOWEVER,
!  FOR NON-UNIFORM TETHERS, THEY FORM BASE VALUES FOR REGION 1)
      REAL*8 :: rRHOT
      REAL*8 :: rAREAT
      REAL*8 :: rYOUNGT
      REAL*8 :: rBETAT
      REAL*8 :: rDIAROT

! SOME TIME VARIANT FINITE TETHER TERMS
      REAL*8 :: rAEOL
      REAL*8 :: rAYOUNG

! TETHER NON-LINEAR STIFFNESS TERMS
      REAL*8 :: rDNLCS
      REAL*8 :: rDNLEX

! ATTRIBUTES FOR NON-UNIFORM-PROPERTIES BEAD MODEL
!-------------------------------------------------
! REGION 1: TETHER LENGTH, YOUNGS MODULUS, MATERIAL DAMPING FACTOR
      REAL*8 :: rTLETR1
      REAL*8 :: rYNGTR1
      REAL*8 :: rBETFR1
! BEGIN/END VALUES: LINEAL DENSITY, ELASTIC AREA, AERO DIA
      REAL*8 :: rRHOTB1
      REAL*8 :: rRHOTE1
      REAL*8 :: rARELB1
      REAL*8 :: rARELE1
      REAL*8 :: rDAROB1
      REAL*8 :: rDAROE1

! REGION 2: TETHER LENGTH, YOUNGS MODULUS, MATERIAL DAMPING FACTOR
      REAL*8 :: rTLETR2
      REAL*8 :: rYNGTR2
      REAL*8 :: rBETFR2
! BEGIN/END VALUES: LINEAL DENSITY, ELASTIC AREA, AERO DIA
      REAL*8 :: rRHOTB2
      REAL*8 :: rRHOTE2
      REAL*8 :: rARELB2
      REAL*8 :: rARELE2
      REAL*8 :: rDAROB2
      REAL*8 :: rDAROE2

! REGION 3: TETHER LENGTH, YOUNGS MODULUS, MATERIAL DAMPING FACTOR
      REAL*8 :: rTLETR3
      REAL*8 :: rYNGTR3
      REAL*8 :: rBETFR3
! BEGIN/END VALUES: LINEAL DENSITY, ELASTIC AREA, AERO DIA
      REAL*8 :: rRHOTB3
      REAL*8 :: rRHOTE3
      REAL*8 :: rARELB3
      REAL*8 :: rARELE3
      REAL*8 :: rDAROB3
      REAL*8 :: rDAROE3

! REGION 4: TETHER LENGTH, YOUNGS MODULUS, MATERIAL DAMPING FACTOR
      REAL*8 :: rTLETR4
      REAL*8 :: rYNGTR4
      REAL*8 :: rBETFR4
! BEGIN/END VALUES: LINEAL DENSITY, ELASTIC AREA, AERO DIA
      REAL*8 :: rRHOTB4
      REAL*8 :: rRHOTE4
      REAL*8 :: rARELB4
      REAL*8 :: rARELE4
      REAL*8 :: rDAROB4
      REAL*8 :: rDAROE4

! REGION 5: TETHER LENGTH, YOUNGS MODULUS, MATERIAL DAMPING FACTOR
      REAL*8 :: rTLETR5
      REAL*8 :: rYNGTR5
      REAL*8 :: rBETFR5
! BEGIN/END VALUES: LINEAL DENSITY, ELASTIC AREA, AERO DIA
      REAL*8 :: rRHOTB5
      REAL*8 :: rRHOTE5
      REAL*8 :: rARELB5
      REAL*8 :: rARELE5
      REAL*8 :: rDAROB5
      REAL*8 :: rDAROE5

! REGION 6: TETHER LENGTH, YOUNGS MODULUS, MATERIAL DAMPING FACTOR
      REAL*8 :: rTLETR6
      REAL*8 :: rYNGTR6
      REAL*8 :: rBETFR6
! BEGIN/END VALUES: LINEAL DENSITY, ELASTIC AREA, AERO DIA
      REAL*8 :: rRHOTB6
      REAL*8 :: rRHOTE6
      REAL*8 :: rARELB6
      REAL*8 :: rARELE6
      REAL*8 :: rDAROB6
      REAL*8 :: rDAROE6

! REGION 7: TETHER LENGTH, YOUNGS MODULUS, MATERIAL DAMPING FACTOR
      REAL*8 :: rTLETR7
      REAL*8 :: rYNGTR7
      REAL*8 :: rBETFR7
! BEGIN/END VALUES: LINEAL DENSITY, ELASTIC AREA, AERO DIA
      REAL*8 :: rRHOTB7
      REAL*8 :: rRHOTE7
      REAL*8 :: rARELB7
      REAL*8 :: rARELE7
      REAL*8 :: rDAROB7
      REAL*8 :: rDAROE7

! REGION 8: TETHER LENGTH, YOUNGS MODULUS, MATERIAL DAMPING FACTOR
      REAL*8 :: rTLETR8
      REAL*8 :: rYNGTR8
      REAL*8 :: rBETFR8
! BEGIN/END VALUES: LINEAL DENSITY, ELASTIC AREA, AERO DIA
      REAL*8 :: rRHOTB8
      REAL*8 :: rRHOTE8
      REAL*8 :: rARELB8
      REAL*8 :: rARELE8
      REAL*8 :: rDAROB8
      REAL*8 :: rDAROE8

! REGION 9: TETHER LENGTH, YOUNGS MODULUS, MATERIAL DAMPING FACTOR
      REAL*8 :: rTLETR9
      REAL*8 :: rYNGTR9
      REAL*8 :: rBETFR9
! BEGIN/END VALUES: LINEAL DENSITY, ELASTIC AREA, AERO DIA
      REAL*8 :: rRHOTB9
      REAL*8 :: rRHOTE9
      REAL*8 :: rARELB9
      REAL*8 :: rARELE9
      REAL*8 :: rDAROB9
      REAL*8 :: rDAROE9

! REGION 10: TETHER LENGTH, YOUNGS MODULUS, MATERIAL DAMPING FACTOR
      REAL*8 :: rTLETR10
      REAL*8 :: rYNGTR10
      REAL*8 :: rBETFR10
! BEGIN/END VALUES: LINEAL DENSITY, ELASTIC AREA, AERO DIA
      REAL*8 :: rRHOTB10
      REAL*8 :: rRHOTE10
      REAL*8 :: rARELB10
      REAL*8 :: rARELE10
      REAL*8 :: rDAROB10
      REAL*8 :: rDAROE10

! REGION 11: TETHER LENGTH, YOUNGS MODULUS, MATERIAL DAMPING FACTOR
      REAL*8 :: rTLETR11
      REAL*8 :: rYNGTR11
      REAL*8 :: rBETFR11
! BEGIN/END VALUES: LINEAL DENSITY, ELASTIC AREA, AERO DIA
      REAL*8 :: rRHOTB11
      REAL*8 :: rRHOTE11
      REAL*8 :: rARELB11
      REAL*8 :: rARELE11
      REAL*8 :: rDAROB11
      REAL*8 :: rDAROE11

! REGION 12: TETHER LENGTH, YOUNGS MODULUS, MATERIAL DAMPING FACTOR
      REAL*8 :: rTLETR12
      REAL*8 :: rYNGTR12
      REAL*8 :: rBETFR12
! BEGIN/END VALUES: LINEAL DENSITY, ELASTIC AREA, AERO DIA
      REAL*8 :: rRHOTB12
      REAL*8 :: rRHOTE12
      REAL*8 :: rARELB12
      REAL*8 :: rARELE12
      REAL*8 :: rDAROB12
      REAL*8 :: rDAROE12

! REGION 13: TETHER LENGTH, YOUNGS MODULUS, MATERIAL DAMPING FACTOR
      REAL*8 :: rTLETR13
      REAL*8 :: rYNGTR13
      REAL*8 :: rBETFR13
! BEGIN/END VALUES: LINEAL DENSITY, ELASTIC AREA, AERO DIA
      REAL*8 :: rRHOTB13
      REAL*8 :: rRHOTE13
      REAL*8 :: rARELB13
      REAL*8 :: rARELE13
      REAL*8 :: rDAROB13
      REAL*8 :: rDAROE13

! REGION 14: TETHER LENGTH, YOUNGS MODULUS, MATERIAL DAMPING FACTOR
      REAL*8 :: rTLETR14
      REAL*8 :: rYNGTR14
      REAL*8 :: rBETFR14
! BEGIN/END VALUES: LINEAL DENSITY, ELASTIC AREA, AERO DIA
      REAL*8 :: rRHOTB14
      REAL*8 :: rRHOTE14
      REAL*8 :: rARELB14
      REAL*8 :: rARELE14
      REAL*8 :: rDAROB14
      REAL*8 :: rDAROE14

! REGION 15: TETHER LENGTH, YOUNGS MODULUS, MATERIAL DAMPING FACTOR
      REAL*8 :: rTLETR15
      REAL*8 :: rYNGTR15
      REAL*8 :: rBETFR15
! BEGIN/END VALUES: LINEAL DENSITY, ELASTIC AREA, AERO DIA
      REAL*8 :: rRHOTB15
      REAL*8 :: rRHOTE15
      REAL*8 :: rARELB15
      REAL*8 :: rARELE15
      REAL*8 :: rDAROB15
      REAL*8 :: rDAROE15


! VARIABLES ASSOCIATED WITH HOST DRIVEN STEPSIZE CAPABILITY
      REAL*8 :: rTBIASF
      REAL*8 :: rDELTPF

! TETH DENSITY AT DEPLOY END (SEG 1) FOR USE IN MASS-FLOW FORCE CALCS
      REAL*8 :: rDENSEG1


!-----------------------------------------
! TETHER FRAME AND ATTACH POINT KINEMATICS
!-----------------------------------------
! POSITION VECTOR BETWEEN ATT PTS (INER FRAME)
      REAL*8, DIMENSION(3) :: rELI

! DERIVATIVE OF POS VECTOR BETWEEN ATT PTS (INER FRAME)
      REAL*8, DIMENSION(3) :: rELDI

! 2ND DERIV OF POS VECTOR BETWEEN ATT PTS (INER FRAME)
      REAL*8, DIMENSION(3) :: rELDDI

! DERIVATIVE OF POS VECTOR BETWEEN ATT PTS (TETHER FRAME)
      REAL*8, DIMENSION(3) :: rELDT

! TETHER FRAME TO INER FRAME AND ORBITAL FRAME TRANSFORMATION
      REAL*8, DIMENSION(3,3) :: rGIT
      REAL*8, DIMENSION(3,3) :: rGTO

! INSTANTANEOUS DISTANCE BETWEEN ATT PTS (AND 2 DERIVATIVES)
      REAL*8 :: rELMG
      REAL*8 :: rELMGD
      REAL*8 :: rELMGDD

! ANGULAR MOMENTUM, ETC OF TOSS REF POINT (INER AND ORB FRAME)
      REAL*8, DIMENSION(3) :: rRVDI
      REAL*8, DIMENSION(3) :: rRVDO

! UNIT NORMAL TO TOSS REF PT ORB FRAME
      REAL*8, DIMENSION(3) :: rUJOI

! DERIV OF ORB FRAME J UNIT VECTOR (ORB AND TETHER FRAME)
      REAL*8, DIMENSION(3) :: rUJDO
      REAL*8, DIMENSION(3) :: rUJDT

! TETHER FRAME ANGULAR VEL VECTOR (TETHER FRAME)
      REAL*8, DIMENSION(3) :: rOMT

! POS,VEL,ACC OF REF END OF TETHER WR/T TOSS REF PT (INER FRAME)
      REAL*8, DIMENSION(3) :: rAREFR
      REAL*8, DIMENSION(3) :: rAREFV
      REAL*8, DIMENSION(3) :: rAREFA

! REF ATTACH PT ("X" END) POS WR/T INER PT (INER FRAME)
      REAL*8, DIMENSION(3) :: rARI

! REF ATTACH PT ("X" END) VEL WR/T INER PT (INER FRAME)
      REAL*8, DIMENSION(3) :: rAVI

! REF ATTACH PT ("X" END) ACCEL WR/T INER PT (INER FRAME)
      REAL*8, DIMENSION(3) :: rAAI

! TETHER FRAME UNIT VECTORS
      REAL*8, DIMENSION(3) :: rUITI
      REAL*8, DIMENSION(3) :: rUJTI
      REAL*8, DIMENSION(3) :: rUKTI

! DERIV OF TETHER FRAME I UNIT VECTOR (INER FRAME)
      REAL*8, DIMENSION(3) :: rUITDI
      REAL*8, DIMENSION(3) :: rUITDDI

! RECIPROCAL OF 'DISTANCE BETWEEN ATTACH POINTS'
      REAL*8 :: rOOLMG

! GROSS STRETCH IN TETHER
      REAL*8 :: rDELMEL


!--------------------
! FORCE DETERMINATION
!--------------------
! ACCEL OF GRAV AT POINT ON TETHER
      REAL*8, DIMENSION(3) :: rAUGI

! AERO FORCE DENSITY AT PT ON TETHER
      REAL*8, DIMENSION(3) :: rFUAI

! ELECTRO FORCE DENSITY AT PT ON TETHER
      REAL*8, DIMENSION(3) :: rFUEI

! POS OF TETHER PT WR/T TETHER REF END (INER FRAME)
      REAL*8, DIMENSION(3) :: rRUI

! VEL OF TETHER PT WR/T TETHER REF END (INER FRAME)
      REAL*8, DIMENSION(3) :: rVUI

! POS OF TETHER PT WR/T INER PT
      REAL*8, DIMENSION(3) :: rRURI

! VEL OF TETHER PT WRT/T INER PT
      REAL*8, DIMENSION(3) :: rRDURI

! RELATIVE WIND ON TETHER POINT
      REAL*8, DIMENSION(3) :: rVURLI

! MISC VARIABLES USED FOR GRAV GARDIENT IC CALCS
      REAL*8, DIMENSION(3) :: rAUGT
      REAL*8, DIMENSION(3,3) :: rOMIJT

! UNIT TANGENT VECTOR AT PT ON TETHER
      REAL*8, DIMENSION(3) :: rTUI

! TOTAL ATMOSPHERIC WIND AT TETHER POINT
      REAL*8, DIMENSION(3) :: rVWFI

! AERODYNAMIC AND MISCELLANEUOS TERMS
      REAL*8 :: rDRGMUL
      REAL*8 :: rVFRSQ
      REAL*8 :: rVFR
      REAL*8 :: rQBARF
      REAL*8 :: rVALMUE
      REAL*8 :: rSINAFI
      REAL*8 :: rCOSAFI
      REAL*8 :: rHYPLOD
      REAL*8 :: rDRGCO
      REAL*8 :: rSEGLFT
      REAL*8 :: rSEGDRG

! LIFT/DRAG UNIT VECTORS AND FORCES
      REAL*8, DIMENSION(3) :: rUDRGI
      REAL*8, DIMENSION(3) :: rULIFI
      REAL*8, DIMENSION(3) :: rFDRGI
      REAL*8, DIMENSION(3) :: rFLIFI

! UNIFORM COMPONENT OF CURRENT IN FINITE TETHER
! (CAN HAVE VALUE INDEPENDENT OF AND ADDITIVE TO CURRTS)
       REAL*8 :: rCURRT

! TERMS ASSOCIATED WITH ELECTRODYNAMIC FORCE CALC
      REAL*8 :: rEMFTOT
      REAL*8 :: rSEGLEN
      REAL*8, DIMENSION(3) :: rBVELI
      REAL*8, DIMENSION(3) :: rBVRELI
      REAL*8, DIMENSION(3) :: rBFLDI
      REAL*8, DIMENSION(3) :: rBVELE
      REAL*8, DIMENSION(3) :: rBFLDE
      REAL*8, DIMENSION(3) :: rRURE

! TOSS-TETHER REQUESTED BREAK CRITERIA VALUE
      REAL*8 :: rVALBRK

! INSTANTANEOUS ETHER DAMPER FACTOR IN FINITE TETHER
! (ASSOCIATED WITH FICTITIOUS SKIP ROPE DAMPING REQUIREMENT)
      REAL*8 :: rEFACT


!--------------------------------------------
! TENSION CALCS, THERMAL CONSTANTS, PLUS MISC
!--------------------------------------------
! "OFFICIAL" FINITE TETHER TENSION VECTOR (INER FRAME)
      REAL*8, DIMENSION(3) :: rXEFTEN
      REAL*8, DIMENSION(3) :: rYEFTEN

! TENSION VECS DERIVED VIA STRAIN CALCULATIONS (INERTIAL FRAME)
      REAL*8, DIMENSION(3) :: rTNSOI
      REAL*8, DIMENSION(3) :: rTNSLI

! TENSION REQUIRED FOR GGIC AT 1ST AND LAST SEG (IF GGIC IS ACTIVE)
      REAL*8 :: rTGGIC1
      REAL*8 :: rTGGICL

! THERMAL CONSTANTS
!------------------
! HEAT CONDUCTIVITY OF TETHER PER UNIT AREA
      REAL*8 :: rAKHC

! HEAT CONDUCTIVITY OF X-END ATTACH POINT TO TETHER
      REAL*8 :: rAKHCX

! HEAT CONDUCTIVITY OF Y-END ATTACH POINT TO TETHER
      REAL*8 :: rAKHCY

! COEFF OF THERMAL EXPANSION (LINEAR NOT VOLUMETRIC)
      REAL*8 :: rALPHAL

! ABSORPTIVITY IN SOLAR SPECTRUM
      REAL*8 :: rALPHAS

! SPECIFIC HEAT PER UNIT MASS
      REAL*8 :: rCVMASS

! SLOPE OF DAMPING WR/T TEMP
      REAL*8 :: rDBTADT

! SLOPE OF SPECIFIC HEAT WR/T TEMP
      REAL*8 :: rDCVMDT

! SLOPE OF RESISTIVITY WR/T TEMP
      REAL*8 :: rDRHODT

! SLOPE OF YOUNGS MODULUS WR/T TEMP
      REAL*8 :: rDYMDT

! EMISSIVITY IN RADIANT SPECTRUM
      REAL*8 :: rEPSS

! RESISTIVITY OF CONDUCTOR PER UNIT LENGTH (AT REF TEMPERATURE)
      REAL*8 :: rRHOELC

! REF TEMPERATURE AT WHICH TETHER BASELINE PROPERTIES APPLY
      REAL*8 :: rTREF

! DATA RELATED TO ASSESSING DYNAMIC EQUILIBRIUM OF BEAD SOLNS
!------------------------------------------------------------
      REAL*8, DIMENSION(3) :: rDPBAI
      REAL*8, DIMENSION(3) :: rDPAAI
      REAL*8, DIMENSION(3) :: rDPBAIL
      REAL*8, DIMENSION(3) :: rDPAAIL
      REAL*8, DIMENSION(3) :: rDHBBIL

! SOME TERMS ASSOCIATED WITH BARE WIRE POWER SCENARIO OPERATIONS
! (SPECIFICALLY RELATED TO SCENARIO 5, BUT CAN BE USED FOR OTHERS)
!----------------------------------------------------------------
! EMITTER-END CURRENT, INTEGRAL, AVER, BATT CURR INTEGRAL, MODE
      REAL*8 :: rEMICUR
      REAL*8 :: rCURINT
      REAL*8 :: rCURAVG
      REAL*8 :: rBATINT
      REAL*8 :: rCURMOD

! THESE PARAMETERS HAVE SPECIAL MEANING FOR SCENARIO 6 (STEP-AIRSEDS)
!--------------------------------------------------------------------
! BODY BIAS VOLTAGE (POWER SUPPLY VOLTAGE)
      REAL*8 :: rVOLTS_OUT
! POWER SUPPLY POWER
      REAL*8 :: rPOWER_OUT
!--------------------------------------------------------------------


! TOTAL END-TO-END ELECTRICAL RESISTANCE OF TETHER (OHM)
      REAL*8 :: rTOTRIS

! EFFECTIVE PLASMA CONTACTING GIRTH-LENGTH AROUND TETHER
      REAL*8 :: rEDYNC

! DEPLOYMENT MOMENTUM MASS-TRANSFER FORCE AT X-END OF TETHER
      REAL*8, DIMENSION(3) :: rXEFMT

! NOMINAL DEPLOYED (UNDEFORMED) TETHER LENGTH,RATE - BETWEEN 2 BEADS
      REAL*8 :: rELB
      REAL*8 :: rELBD

! X-AXIS UNIFORM SEG LENGTH (AND DERIV) BASED ON DIST BETWEEN ATT PTS
      REAL*8 :: rELSGX
      REAL*8 :: rELSGXD

! SPATIAL ARC LENGTH OF TETHER (SUM OF ACTUAL DISTANCES BETWEEN BEADS)
      REAL*8 :: rARCTOT

! FRACTIONAL ERROR IN SEG LENGTH AT WHICH HST SOLN DECLARES FAILURE
      REAL*8 :: rHSTFRL

! HST SOLN CONSTRAINT CONTROL ERROR AND RATE GAINS
      REAL*8 :: rHSTGNE
      REAL*8 :: rHSTGNR

! ACTUAL TOTAL DEPLOYED UNDEFORMED TETHER LENGTH
! (REFLECTS CHANGES DUE TO THERMAL EFFECTS)
      REAL*8 :: rSEGLAT

! TOTAL MASS OF DEPLOYED TETHER (IE. SUM OF ALL THE BEAD MASSES)
      REAL*8 :: rBMSTOT

! NUMBER OF TETHER SEGMENTS BETWEEN BEADS (AND RECIPROCAL)
      REAL*8 :: rBNSEG
      REAL*8 :: rOBNSEG

! MISCELLANEOUS DYN COUPLING VECTOR
      REAL*8, DIMENSION(3) :: rSLROC

! TIME AT WHICH SEGMENT BREAKS MAY OCCUR
      REAL*8 :: rTS1BRK
      REAL*8 :: rTS2BRK

! POS VEC (AND DERIV) FROM X-END TO Y-END OF SEGMENT
      REAL*8, DIMENSION(3) :: rSUI
      REAL*8, DIMENSION(3) :: rSUDI

! POS,VEL WR/T INER PT OF Y-END OF A BEAD SEGMENT (INER FRAME)
      REAL*8, DIMENSION(3) :: rRYENDI
      REAL*8, DIMENSION(3) :: rVYENDI

! TETHERS X-END,Y-END-SEGMENT TARE FORCES (USED IN ATT PT TENS CALC)
      REAL*8, DIMENSION(3) :: rXETARE
      REAL*8, DIMENSION(3) :: rYETARE

! MISCELLANEOUS SEGMENT SPRING FORCE TERMS
      REAL*8 :: rDELSG
      REAL*8 :: rDELSGD
      REAL*8 :: rFSEG

! SUM OF AERO AND ELECTRO FORCES ON BEAD TETHER
      REAL*8, DIMENSION(3) :: rFBMAI
      REAL*8, DIMENSION(3) :: rFBMEI

! NON-UNIFORM PROPERTIES REGION INDICATORS
! (NOTE DECLARATION FOR REGIN5-REGIN15 FOUND FURTHER DOWN)
      REAL*8 :: rREGIN1
      REAL*8 :: rREGIN2
      REAL*8 :: rREGIN3
      REAL*8 :: rREGIN4
      REAL*8 :: rREGIN5
      REAL*8 :: rREGIN6
      REAL*8 :: rREGIN7
      REAL*8 :: rREGIN8
      REAL*8 :: rREGIN9
      REAL*8 :: rREGIN10
      REAL*8 :: rREGIN11
      REAL*8 :: rREGIN12
      REAL*8 :: rREGIN13
      REAL*8 :: rREGIN14
      REAL*8 :: rREGIN15

! TOTAL LINEAR MOMENTUM (W/NUM DERIV), TOTAL EXT FORCE, FRACT ERROR
      REAL*8, DIMENSION(3) :: rPBBI
      REAL*8, DIMENSION(3) :: rPBBID
      REAL*8, DIMENSION(3) :: rFEBBI
      REAL*8, DIMENSION(3) :: rERRPBB

! TOTAL ANGULAR MOMENTUM (W/NUM DERIV), TOTAL EXT FORCE, FRACT ERROR
      REAL*8, DIMENSION(3) :: rHBBI
      REAL*8, DIMENSION(3) :: rHBBID
      REAL*8, DIMENSION(3) :: rGEBBI
      REAL*8, DIMENSION(3) :: rERRHBB

! BEAD MODEL CENTER OF MASS STATE WR/T X-END ATTACH PT
      REAL*8, DIMENSION(3) :: rBBCGI
      REAL*8, DIMENSION(3) :: rBBCGID


! TRANSIENT TETHER THERMAL VARIABLES
!-----------------------------------
! SEG AND TOTAL QDOT DUE TO ALBEDO
      REAL*8 :: rQDALB
      REAL*8 :: rQDALBT

! SEG AND TOTAL QDOT DUE TO AERODYNAMICS
      REAL*8 :: rQDARO
      REAL*8 :: rQDAROT

! SEG AND TOTAL QDOT DUE TO EARTH (BLACK BODY) RADIATION
      REAL*8 :: rQDEBB
      REAL*8 :: rQDEBBT

! SEG AND TOTAL QDOT DUE TO OHMIC HEATING
      REAL*8 :: rQDELC
      REAL*8 :: rQDELCT

! SEG AND TOTAL QDOT DUE TO RADIATION EMISSION BY TETHER
      REAL*8 :: rQDEMIT
      REAL*8 :: rQDEMTT

! SEG AND TOTAL QDOT DUE TO INTER-SEGMENT CONDUCTION (4EA==FOURIER)
      REAL*8 :: rQD4EA
      REAL*8 :: rQD4EAT

! SEG AND TOTAL QDOT DUE TO SOLAR RADIATION
      REAL*8 :: rQDSOL
      REAL*8 :: rQDSOLT

! TETHER PLANET GEOMETRICAL VIEW FACTOR
      REAL*8 :: rVUFAC

! TETHER ALBEDO EXPOSURE FACTOR
      REAL*8 :: rALBFAC

! LAST VALUE OF TENSION (NEEDED FOR PERSISTENCE AND IC IN TNSHIC)
      REAL*8 :: rTENLAS

! PLASMA ELECTRON DENSITY ARRAY FOR UP TO 50 BANDS OF ALTITUDE
      REAL*8, DIMENSION(50) :: rEDENS

!-----------------------------------
! DYNAMICS VARIABLES AND BEAD STATES
!-----------------------------------
! NOTE: SOME ARRAYS CONTAIN THE X,Y,Z COMPONENTS FOR EACH BEAD,
!       THUS ARE DIMENSIONED SIZE = 3*MAX NUMBER OF BEADS.
!       OTHERS SPAN THE NUMBER OF SEGMENTS THUS ARE DIMENSIONED
!       MAXBBS+1, ETC.

!----------------------
! START 3*MAX3BB ARRAYS
!----------------------
! BEAD DISPLACEMENT COORDINATES (AND PREVIOUS VALUES)
      REAL*8, DIMENSION(MAX3BB) :: rBUI
      REAL*8, DIMENSION(MAX3BB) :: rBUDI
      REAL*8, DIMENSION(MAX3BB) :: rBUDIP
      REAL*8, DIMENSION(MAX3BB) :: rBUDDI
      REAL*8, DIMENSION(MAX3BB) :: rBUDDIP

! SUM OF EXTERNAL FORCES ON BEAD COORDS (IE NO GRAV, NO SPRING)
      REAL*8, DIMENSION(MAX3BB) :: rBFEXI

! SPRING AND SPRING DAMPING FORCES ON BEAD COORDS
      REAL*8, DIMENSION(MAX3BB) :: rBFSI

! SUM OF ALL CONTRIBUTION TO ACCEL THAT HAS LOW COORD SENSITIVITY
      REAL*8, DIMENSION(MAX3BB) :: rBCINS

! PERTURBATION COORD COUPLING TERMS
      REAL*8, DIMENSION(MAX3BB) :: rSLROCJ

! ACCEL OF GRAV AT EACH BEAD POSITION (INER FRAME COMP)
      REAL*8, DIMENSION(MAX3BB) :: rBAGI

! BEAD STATES IN TETHER FRAME FOR ICS AND INTERPRETATION
      REAL*8, DIMENSION(MAX3BB) :: rBUT
      REAL*8, DIMENSION(MAX3BB) :: rBUDT
      REAL*8, DIMENSION(MAX3BB) :: rBFST

! BEAD POSITION AND VELOCITY WR/T TETHER REF END (INER FRAME)
      REAL*8, DIMENSION(MAX3BB) :: rRUBI
      REAL*8, DIMENSION(MAX3BB) :: rVUBI


!--------------------
! START MAXSEG ARRAYS
!--------------------
! TENSION IN EACH SEGMENT BETWEEN 2 BEADS
      REAL*8, DIMENSION(MAXSEG) :: rTENSEG

! CURRENT EFFECTIVE SEGMENT SPRING RATE AND DAMPING COEFF
      REAL*8, DIMENSION(MAXSEG) :: rBEADKS
      REAL*8, DIMENSION(MAXSEG) :: rBEADKD

! CURRENT EQUIVALENT AERO DIAMETER OF A SEGMENT
      REAL*8, DIMENSION(MAXSEG) :: rDIARO

! DERIV OF SEG WR/T MU (AND ITS TIME DERIV) FOR FLOW CALCS
      REAL*8, DIMENSION(MAXSEG) :: rDSDU
      REAL*8, DIMENSION(MAXSEG) :: rDSDUD

! SEGMENT ATMOSPHERIC DENSITY
      REAL*8, DIMENSION(MAXSEG) :: rDENF

! SEGMENT LENGTH AND LENGTH RATE
      REAL*8, DIMENSION(MAXSEG) :: rELBSG
      REAL*8, DIMENSION(MAXSEG) :: rELBSGD

! TETHER THERMAL CALC ARRAYS
      REAL*8, DIMENSION(MAXSEG) :: rSTEMPK
      REAL*8, DIMENSION(MAXSEG) :: rQDTSW
      REAL*8, DIMENSION(MAXSEG) :: rTNEXTK
      REAL*8, DIMENSION(MAXSEG) :: rQDSARO

! ACTUAL SEGMENT DEPLOYED-UNDEFORMED LENGTH (REFLECTS THERMAL)
      REAL*8, DIMENSION(MAXSEG) :: rSEGLA

! INSTANTANEOUS SEGMENT-SPECIFIC ELECTRIC CURRENT IN EACH SEGMENT
      REAL*8, DIMENSION(MAXSEG) :: rCURRTS

! SEGMENT-SPECIFIC TEMPERATURE-COMPENSATED RESISTANCE/LENGTH
      REAL*8, DIMENSION(MAXSEG) :: rRHOELT

! SEGMENT-SPECIFIC TEMPERATURE-COMPENSATED PLASMA CIRCUMFERENCE
      REAL*8, DIMENSION(MAXSEG) :: rEDYNCT

! CURRENT EFFECTIVE SEGMENT ELASTIC AREA
      REAL*8, DIMENSION(MAXSEG) :: rBEADELA

! ELECTRON DENSITY AT A FINITE TETHER SEGEMNT
      REAL*8, DIMENSION(MAXSEG) :: rEDENSBB



!--------------------
! START MAXBBS ARRAYS
!--------------------
! CURRENT EQUIVALENT MASS OF A BEAD
      REAL*8, DIMENSION(MAXBBS) :: rBMS

! HST FORCE COEFF MULTIPLIERS
      REAL*8, DIMENSION(MAXBBS) :: rCLAMBA

! HST CONSTRAINT EQUATION RHS VALUES
      REAL*8, DIMENSION(MAXBBS) :: rADA


!----------------------
! START 3*MAXSEG ARRAYS
!----------------------
! UNIT TANGENT VECTORS AND THEIR DERIVATIVES FOR EACH SEGMENT
      REAL*8, DIMENSION(MAXSEG,3) :: rBBTUI
      REAL*8, DIMENSION(MAXSEG,3) :: rBBTUDI

! TOTAL ATMOSPHERIC WINDS (FOR HOST COMMANDED WIND EVAL)
      REAL*8, DIMENSION(MAXSEG,3) :: rWNDTOE

! MAGNETIC FIELD ATTRIBUTES (FOR HOST COMMANDED MAGNETIC ENVIRON EVAL)
      REAL*8, DIMENSION(MAXSEG,3) :: rBFLSEG
      REAL*8, DIMENSION(MAXSEG,3) :: rBVLSEG

! UNIT TANGENT VECTORS AND THEIR DERIVATIVES FOR EACH SEGMENT
      REAL*8, DIMENSION(MAXSEG,3) :: rBBTUT

! RELATIVE WIND FOR EACH SEGMENT
      REAL*8, DIMENSION(MAXSEG,3) :: rVRELSGI

! AERO LOAD FOR EACH SEGMENT
      REAL*8, DIMENSION(MAXSEG,3) :: rFAROSGI

! LOCAL WIND PERTURBATION FOR EACH SEGMENT
      REAL*8, DIMENSION(MAXSEG,3) :: rVWFSGI

! LOCAL ATMOSPHERIC WIND PERTURB (FOR HOST COMMANDED WIND EVAL)
      REAL*8, DIMENSION(MAXSEG,3) :: rWNDLPE

         END TYPE FINITE_SOLN_STATE

      END MODULE FINITE_DATA_STRUCTURE

